\relax 
\providecommand\hyper@newdestlabel[2]{}
\providecommand\zref@newlabel[2]{}
\providecommand\HyperFirstAtBeginDocument{\AtBeginDocument}
\HyperFirstAtBeginDocument{\ifx\hyper@anchor\@undefined
\global\let\oldcontentsline\contentsline
\gdef\contentsline#1#2#3#4{\oldcontentsline{#1}{#2}{#3}}
\global\let\oldnewlabel\newlabel
\gdef\newlabel#1#2{\newlabelxx{#1}#2}
\gdef\newlabelxx#1#2#3#4#5#6{\oldnewlabel{#1}{{#2}{#3}}}
\AtEndDocument{\ifx\hyper@anchor\@undefined
\let\contentsline\oldcontentsline
\let\newlabel\oldnewlabel
\fi}
\fi}
\global\let\hyper@last\relax 
\gdef\HyperFirstAtBeginDocument#1{#1}
\providecommand\HyField@AuxAddToFields[1]{}
\providecommand\HyField@AuxAddToCoFields[2]{}
\catcode `:\active 
\catcode `;\active 
\catcode `!\active 
\catcode `?\active 
\@writefile{toc}{\beamer@endinputifotherversion {3.33pt}}
\@writefile{nav}{\beamer@endinputifotherversion {3.33pt}}
\select@language{french}
\@writefile{toc}{\select@language{french}}
\@writefile{lof}{\select@language{french}}
\@writefile{lot}{\select@language{french}}
\@writefile{nav}{\headcommand {\slideentry {0}{0}{1}{1/1}{}{0}}}
\@writefile{nav}{\headcommand {\beamer@framepages {1}{1}}}
\@writefile{nav}{\headcommand {\slideentry {0}{0}{2}{2/2}{}{0}}}
\@writefile{nav}{\headcommand {\beamer@framepages {2}{2}}}
\@writefile{nav}{\headcommand {\slideentry {0}{0}{3}{3/3}{}{0}}}
\@writefile{nav}{\headcommand {\beamer@framepages {3}{3}}}
\@writefile{nav}{\headcommand {\slideentry {0}{0}{4}{4/4}{}{0}}}
\@writefile{nav}{\headcommand {\beamer@framepages {4}{4}}}
\@writefile{nav}{\headcommand {\slideentry {0}{0}{5}{5/5}{}{0}}}
\@writefile{nav}{\headcommand {\beamer@framepages {5}{5}}}
\@writefile{nav}{\headcommand {\slideentry {0}{0}{6}{6/6}{}{0}}}
\@writefile{nav}{\headcommand {\beamer@framepages {6}{6}}}
\@writefile{nav}{\headcommand {\slideentry {0}{0}{7}{7/7}{}{0}}}
\@writefile{nav}{\headcommand {\beamer@framepages {7}{7}}}
\@writefile{nav}{\headcommand {\slideentry {0}{0}{8}{8/8}{}{0}}}
\@writefile{nav}{\headcommand {\beamer@framepages {8}{8}}}
\@writefile{nav}{\headcommand {\slideentry {0}{0}{9}{9/9}{}{0}}}
\@writefile{nav}{\headcommand {\beamer@framepages {9}{9}}}
\@writefile{nav}{\headcommand {\slideentry {0}{0}{10}{10/10}{}{0}}}
\@writefile{nav}{\headcommand {\beamer@framepages {10}{10}}}
\@writefile{nav}{\headcommand {\slideentry {0}{0}{11}{11/11}{}{0}}}
\@writefile{nav}{\headcommand {\beamer@framepages {11}{11}}}
\@writefile{nav}{\headcommand {\slideentry {0}{0}{12}{12/12}{}{0}}}
\@writefile{nav}{\headcommand {\beamer@framepages {12}{12}}}
\@writefile{nav}{\headcommand {\slideentry {0}{0}{13}{13/13}{}{0}}}
\@writefile{nav}{\headcommand {\beamer@framepages {13}{13}}}
\@writefile{nav}{\headcommand {\slideentry {0}{0}{14}{14/14}{}{0}}}
\@writefile{nav}{\headcommand {\beamer@framepages {14}{14}}}
\@writefile{nav}{\headcommand {\slideentry {0}{0}{15}{15/15}{}{0}}}
\@writefile{nav}{\headcommand {\beamer@framepages {15}{15}}}
\@writefile{nav}{\headcommand {\slideentry {0}{0}{16}{16/16}{}{0}}}
\@writefile{nav}{\headcommand {\beamer@framepages {16}{16}}}
\@writefile{nav}{\headcommand {\beamer@partpages {1}{16}}}
\@writefile{nav}{\headcommand {\beamer@subsectionpages {1}{16}}}
\@writefile{nav}{\headcommand {\beamer@sectionpages {1}{16}}}
\@writefile{nav}{\headcommand {\beamer@documentpages {16}}}
\@writefile{nav}{\headcommand {\def \inserttotalframenumber {16}}}
\gdef\minted@oldcachelist{,
  default.pygstyle,
  default-pyg-prefix.pygstyle,
  10013CB6213AA5B72FA867752525066848A182F79FC759A4E0FD3C85DDA98CB5.pygtex,
  ED240DB0EB8A5332C79BC7554FE0CC1948A182F79FC759A4E0FD3C85DDA98CB5.pygtex,
  EC366C8FC169396C66D204E74E2083A648A182F79FC759A4E0FD3C85DDA98CB5.pygtex,
  5A6156233C6AEA54B19E847206FB298548A182F79FC759A4E0FD3C85DDA98CB5.pygtex,
  2AABEA99157C89E4386283E58FBD144C48A182F79FC759A4E0FD3C85DDA98CB5.pygtex,
  2D76CCC876D58883CD6063E05442BB0848A182F79FC759A4E0FD3C85DDA98CB5.pygtex,
  26E33A44FBEF4DBEF83F4B7C79A395F948A182F79FC759A4E0FD3C85DDA98CB5.pygtex,
  808F5BC0BB5935318E1DC7764FF67C1C48A182F79FC759A4E0FD3C85DDA98CB5.pygtex,
  1A299BA2093FACC19975B4003D872EFD48A182F79FC759A4E0FD3C85DDA98CB5.pygtex,
  5299BEE56B6F8060F65ED7170A72411548A182F79FC759A4E0FD3C85DDA98CB5.pygtex,
  8DC825754037D30FEE4389DB28A93AA048A182F79FC759A4E0FD3C85DDA98CB5.pygtex,
  E622248F8D4E1313522F321309A3260248A182F79FC759A4E0FD3C85DDA98CB5.pygtex,
  AD3F3304229C0D2099622EC0A4CB4C2848A182F79FC759A4E0FD3C85DDA98CB5.pygtex,
  A83F1D9C5191891EE2380FF5E5CA97F448A182F79FC759A4E0FD3C85DDA98CB5.pygtex,
  BFEBD93A1B91695718FB1642B93C709F48A182F79FC759A4E0FD3C85DDA98CB5.pygtex,
  66F09F2E9E009032B2EEA7BBB2229C2E48A182F79FC759A4E0FD3C85DDA98CB5.pygtex,
  243C316ABE6E6FC6F1632F21EE49585A48A182F79FC759A4E0FD3C85DDA98CB5.pygtex,
  14EBEAF62224C06CAFC72E70817BA02F48A182F79FC759A4E0FD3C85DDA98CB5.pygtex,
  41EFC3519A00F51382C9C20AB94B23ED48A182F79FC759A4E0FD3C85DDA98CB5.pygtex,
  3BBD46762D9D9CA9A9B1C1639F563CB448A182F79FC759A4E0FD3C85DDA98CB5.pygtex,
  9868F444A3D47B9A951381DC4CECDE6C48A182F79FC759A4E0FD3C85DDA98CB5.pygtex,
  FE715DA58C376405BD077F4BD56A43DE48A182F79FC759A4E0FD3C85DDA98CB5.pygtex,
  34B05579D15F7232BC555F9E6E0C0FAA48A182F79FC759A4E0FD3C85DDA98CB5.pygtex,
  7D52573DBE79A7B2D257F2FFEBAB67D248A182F79FC759A4E0FD3C85DDA98CB5.pygtex,
  F645177DBAC63B9DF2ADCBCDA6197BB448A182F79FC759A4E0FD3C85DDA98CB5.pygtex,
  97FE788557EE6482E9986ACD8672A0DD48A182F79FC759A4E0FD3C85DDA98CB5.pygtex,
  25722D2CA061AC6B3BFB692EC8E8EB4B48A182F79FC759A4E0FD3C85DDA98CB5.pygtex,
  79F01C425285108CF7CC1CFCCF4FEAC748A182F79FC759A4E0FD3C85DDA98CB5.pygtex,
  E5E84148AFBF3686F34C0AA514DE1F3D48A182F79FC759A4E0FD3C85DDA98CB5.pygtex,
  A6DC74B8B3386C454C673054E5FBFE9B48A182F79FC759A4E0FD3C85DDA98CB5.pygtex,
  75A3A7481415E29DCDDA2C3F4E0BCB0148A182F79FC759A4E0FD3C85DDA98CB5.pygtex,
  F2AD61D10866E41454BD7D64476645AE48A182F79FC759A4E0FD3C85DDA98CB5.pygtex,
  0B79C8B100AD0C9AE4AFAFAE41771C2848A182F79FC759A4E0FD3C85DDA98CB5.pygtex,
  5401E0FF1E8F3753ABCF36D4192155AF48A182F79FC759A4E0FD3C85DDA98CB5.pygtex,
  0F82C04F14F2AD11A10D7DB5614C2BB048A182F79FC759A4E0FD3C85DDA98CB5.pygtex,
  5103F0A4DB1AB3CFBB54598B3403A63448A182F79FC759A4E0FD3C85DDA98CB5.pygtex,
  90C56266F014A38F9CF9B15385B21C1048A182F79FC759A4E0FD3C85DDA98CB5.pygtex}
