Groupe 1 :
L0049B, L0144B, L0154C, L0163C, L0174B, L0198C, L0245B, L0263C, L0290B, L0310C, L0321B, L0337C, L0401C, L0530B, L0542B, L0549B, L0550B, L0552D, L0554B, L0555B, L0557B, L0651C, L0732D, L0734D, L0736D

Groupe 2 :
L0166B, L0213D, L0216B, L0233C, L0239B, L0306C, L0330B, L0357B, L0368D, L0369B, L0372B, L0400C, L0404B, L0410B, L0414C, L0421B, L0425C, L0430B, L0448B, L0482C, L0514C, L0526C, L0543B, L0544A, L0545C, L0546B, L0547B, L0640C, L0648D, L0673C, L0679C, L0738D

Locus à sauter :
glut, leg219, erf, unk29, HAPc, leg391, fca2, pg3, l1l, tc44795
