\relax 
\providecommand\hyper@newdestlabel[2]{}
\providecommand\zref@newlabel[2]{}
\providecommand\HyperFirstAtBeginDocument{\AtBeginDocument}
\HyperFirstAtBeginDocument{\ifx\hyper@anchor\@undefined
\global\let\oldcontentsline\contentsline
\gdef\contentsline#1#2#3#4{\oldcontentsline{#1}{#2}{#3}}
\global\let\oldnewlabel\newlabel
\gdef\newlabel#1#2{\newlabelxx{#1}#2}
\gdef\newlabelxx#1#2#3#4#5#6{\oldnewlabel{#1}{{#2}{#3}}}
\AtEndDocument{\ifx\hyper@anchor\@undefined
\let\contentsline\oldcontentsline
\let\newlabel\oldnewlabel
\fi}
\fi}
\global\let\hyper@last\relax 
\gdef\HyperFirstAtBeginDocument#1{#1}
\providecommand\HyField@AuxAddToFields[1]{}
\providecommand\HyField@AuxAddToCoFields[2]{}
\bbl@cs{beforestart}
\catcode `:\active 
\catcode `;\active 
\catcode `!\active 
\catcode `?\active 
\babel@aux{french}{}
\@writefile{nav}{\headcommand {\slideentry {0}{0}{1}{1/1}{}{0}}}
\@writefile{nav}{\headcommand {\beamer@framepages {1}{1}}}
\@writefile{nav}{\headcommand {\slideentry {0}{0}{2}{2/2}{}{0}}}
\@writefile{nav}{\headcommand {\beamer@framepages {2}{2}}}
\@writefile{nav}{\headcommand {\slideentry {0}{0}{3}{3/3}{}{0}}}
\@writefile{nav}{\headcommand {\beamer@framepages {3}{3}}}
\@writefile{nav}{\headcommand {\slideentry {0}{0}{4}{4/4}{}{0}}}
\@writefile{nav}{\headcommand {\beamer@framepages {4}{4}}}
\@writefile{nav}{\headcommand {\slideentry {0}{0}{5}{5/5}{}{0}}}
\@writefile{nav}{\headcommand {\beamer@framepages {5}{5}}}
\@writefile{nav}{\headcommand {\slideentry {0}{0}{6}{6/6}{}{0}}}
\@writefile{nav}{\headcommand {\beamer@framepages {6}{6}}}
\@writefile{nav}{\headcommand {\slideentry {0}{0}{7}{7/7}{}{0}}}
\@writefile{nav}{\headcommand {\beamer@framepages {7}{7}}}
\@writefile{nav}{\headcommand {\slideentry {0}{0}{8}{8/8}{}{0}}}
\@writefile{nav}{\headcommand {\beamer@framepages {8}{8}}}
\@writefile{nav}{\headcommand {\slideentry {0}{0}{9}{9/9}{}{0}}}
\@writefile{nav}{\headcommand {\beamer@framepages {9}{9}}}
\@writefile{nav}{\headcommand {\slideentry {0}{0}{10}{10/10}{}{0}}}
\@writefile{nav}{\headcommand {\beamer@framepages {10}{10}}}
\@writefile{nav}{\headcommand {\slideentry {0}{0}{11}{11/11}{}{0}}}
\@writefile{nav}{\headcommand {\beamer@framepages {11}{11}}}
\@writefile{nav}{\headcommand {\slideentry {0}{0}{12}{12/12}{}{0}}}
\@writefile{nav}{\headcommand {\beamer@framepages {12}{12}}}
\@writefile{nav}{\headcommand {\beamer@partpages {1}{12}}}
\@writefile{nav}{\headcommand {\beamer@subsectionpages {1}{12}}}
\@writefile{nav}{\headcommand {\beamer@sectionpages {1}{12}}}
\@writefile{nav}{\headcommand {\beamer@documentpages {12}}}
\@writefile{nav}{\headcommand {\gdef \inserttotalframenumber {12}}}
\gdef\minted@oldcachelist{,
  default-pyg-prefix.pygstyle,
  default.pygstyle,
  5D391CBECA3FC45CF3D85B55933CA13A01CB1C8BAA0B81AA984FE35C2F9F1BC7.pygtex,
  13031D10B5A4F239B421AA2C84E3164101CB1C8BAA0B81AA984FE35C2F9F1BC7.pygtex,
  980CA7AD7B24BC5491806E2F60B996B901CB1C8BAA0B81AA984FE35C2F9F1BC7.pygtex,
  13031D10B5A4F239B421AA2C84E3164101CB1C8BAA0B81AA984FE35C2F9F1BC7.pygtex,
  2813B3345016666713D64AD9CE2DB32EC2BD6A6C64530407327632B516B510D3.pygtex,
  562099568F7068CF27CCDB35E2CD6BA9C2BD6A6C64530407327632B516B510D3.pygtex,
  351AFE96A2B46694C0D8F19561E45842C2BD6A6C64530407327632B516B510D3.pygtex,
  1A299BA2093FACC19975B4003D872EFDC2BD6A6C64530407327632B516B510D3.pygtex,
  CE1E0A8B5DE9C2B4B107AD0F2300C9FEC2BD6A6C64530407327632B516B510D3.pygtex,
  E48FE62566E369E8C08EE1D809695AD1C2BD6A6C64530407327632B516B510D3.pygtex,
  09DB9198C7706B52BA8C47F225C61087C2BD6A6C64530407327632B516B510D3.pygtex,
  86DB8F3186E2FCD4811BC3BD8EEE1723C2BD6A6C64530407327632B516B510D3.pygtex,
  0D9628E8C61A5B7A6123D09E51285DFAC2BD6A6C64530407327632B516B510D3.pygtex,
  6C8F0A5BD033C43E80812B828931F594C2BD6A6C64530407327632B516B510D3.pygtex,
  D81EE7D4FBBDCCB4BF0EB7AFCED35D95C2BD6A6C64530407327632B516B510D3.pygtex,
  BC299E6BD04130017F47A9ACA5EFE279C2BD6A6C64530407327632B516B510D3.pygtex,
  5CC8DB0B436A16BD8B1DD5A218AAC199C2BD6A6C64530407327632B516B510D3.pygtex,
  AB5B6950CB8579FC488DD5E5B49589CCC2BD6A6C64530407327632B516B510D3.pygtex,
  D9005BBCD8236D20A0C86D4D1194A752C2BD6A6C64530407327632B516B510D3.pygtex}
