091 125 096 144 050 036 038 036 049 150 096 057 119 139 104 090 058 032 134 059 028 062 033 021 061 106 074 126 031 086
091 125 096 144 050 036 038 036 048 150 097 057 119 135 104 090 058 032 134 059 029 061 036 021 061 107 067 123 031 086
095 114 088 151 050 034 039 034 042 146 091 041 120 135 108 091 060 032 133 049 029 058 062 022 061 104 075 122 032 088
095 114 088 151 043 034 039 034 045 146 091 056 120 135 104 091 060 035 133 049 028 058 062 022 061 104 075 117 032 086
101 115 089 145 049 033 039 028 042 143 098 032 118 140 101 089 054 030 133 059 030 066 033 023 064 105 075 122 030 086
091 104 089 145 049 036 039 028 042 143 098 042 118 140 101 091 061 030 133 059 029 066 035 023 064 101 075 124 032 086
103 126 096 140 054 037 038 035 048 147 090 055 112 133 106 094 058 031 134 053 029 062 036 022 060 106 069 125 032 089
103 126 096 140 050 037 038 036 042 147 090 055 112 133 106 094 058 031 125 053 029 062 036 023 060 106 075 125 030 086
101 126 090 150 050 037 037 033 043 147 097 032 105 138 104 098 054 030 134 053 031 058 062 022 064 106 075 122 037 084
101 113 093 150 050 037 037 033 043 150 096 059 105 138 104 092 060 030 134 053 029 058 062 022 062 106 075 122 037 084
102 110 096 141 052 034 039 036 049 144 092 056 122 135 105 091 058 032 133 048 031 061 035 014 058 100 069 116 032 084
102 110 096 141 052 034 039 036 049 144 092 056 122 135 107 091 060 032 133 047 029 061 036 023 058 100 069 135 032 084
095 109 089 145 053 036 033 034 049 150 090 042 105 139 105 092 059 031 133 057 028 059 035 023 066 100 070 124 037 079
093 114 089 150 052 036 033 036 049 144 090 042 114 131 105 092 059 031 133 059 028 059 035 016 061 099 070 124 037 086
093 108 094 150 051 037 030 031 049 150 086 056 105 138 105 092 060 032 132 053 029 062 035 021 064 107 066 123 031 081
088 108 095 141 051 037 033 031 049 150 086 056 105 138 105 092 060 032 134 055 029 062 034 016 064 107 067 123 036 081
092 113 097 145 050 036 038 029 043 145 096 032 112 135 107 098 057 031 134 055 028 061 062 015 066 107 069 122 031 089
092 113 097 145 050 036 039 028 048 145 096 042 114 135 107 098 057 031 134 059 028 061 062 015 066 104 069 122 031 089
093 114 094 147 050 037 030 035 048 144 099 060 120 135 104 090 060 032 135 061 030 061 035 016 061 105 069 119 031 084
093 114 089 147 050 037 030 029 048 145 099 060 120 135 104 090 060 032 135 061 030 061 035 016 061 105 075 119 031 086
102 114 094 151 051 036 033 034 043 150 099 040 119 138 105 092 059 032 134 061 029 061 062 017 061 104 075 116 032 083
102 109 095 147 053 036 033 034 043 150 099 056 119 140 105 092 059 032 134 061 035 059 035 017 063 104 066 123 032 086
102 113 092 147 050 035 039 031 042 149 099 056 118 142 107 094 056 033 125 047 035 059 035 022 061 106 075 123 031 086
095 104 096 147 048 037 040 031 042 149 092 056 118 138 107 094 056 032 125 047 035 059 035 022 064 106 075 123 032 086
090 114 094 147 050 034 039 031 042 143 096 060 119 140 105 092 060 030 133 053 030 062 062 014 066 100 075 123 038 084
093 114 096 147 043 034 039 032 042 145 096 060 115 140 105 092 054 030 134 055 030 062 062 014 060 100 075 123 038 084
092 110 094 144 050 035 039 034 042 149 098 042 105 134 107 091 058 030 133 053 030 059 036 021 060 104 068 118 031 086
096 110 094 144 050 038 039 034 049 149 098 042 105 143 102 094 058 030 133 058 029 062 034 021 061 104 068 118 031 086
102 125 094 144 043 036 030 034 048 142 091 059 112 138 103 093 060 032 130 057 029 058 033 022 061 100 075 123 032 084
102 125 089 144 051 036 030 034 048 150 091 059 112 138 103 090 056 033 130 057 032 058 034 021 061 100 075 124 032 084
095 114 088 146 051 037 037 034 045 149 097 043 118 136 094 092 054 032 130 061 029 061 062 021 064 104 075 124 032 084
095 114 088 146 051 037 037 034 045 149 097 043 104 136 094 092 056 032 134 061 031 059 062 021 065 100 075 116 032 084
104 100 094 157 051 034 030 036 042 149 091 056 112 140 105 091 054 032 134 047 031 058 036 017 064 103 075 116 038 086
101 114 093 141 051 036 030 036 042 149 091 056 112 140 105 091 054 032 137 047 031 058 072 022 064 103 075 116 038 089
096 100 095 141 052 034 038 031 042 144 091 041 119 131 103 092 060 030 135 049 031 061 062 017 061 107 075 116 038 084
096 100 095 147 043 037 038 031 042 144 097 041 114 139 103 092 060 030 135 049 029 061 062 019 061 107 075 125 038 084
102 106 092 145 051 037 030 036 048 145 097 042 114 137 104 094 057 032 133 059 029 062 035 017 061 107 070 127 038 081
102 106 092 140 051 034 030 036 043 145 097 059 114 136 104 098 059 032 133 049 031 062 035 017 062 107 070 127 038 086
095 109 096 157 048 041 036 035 049 146 087 059 108 136 107 091 054 033 134 054 030 073 033 021 061 100 075 135 032 086
095 109 096 142 051 041 036 035 049 146 087 059 105 136 102 091 060 033 125 054 030 073 033 021 061 098 075 135 031 086
094 124 095 141 050 033 030 032 049 144 099 032 120 134 105 092 060 034 134 055 031 061 061 015 064 107 069 122 032 089
091 124 095 141 050 033 030 032 049 144 099 032 105 134 107 098 060 030 134 055 031 061 061 015 064 107 069 122 032 089
090 114 095 145 050 036 039 032 048 146 099 060 118 139 104 086 054 031 132 047 029 061 033 022 064 107 076 122 038 086
102 100 096 145 050 036 039 036 043 150 099 060 118 139 104 086 056 032 132 057 029 061 033 022 064 107 075 122 032 086
093 108 090 147 053 036 037 028 048 145 091 042 119 137 105 086 054 033 133 057 031 065 062 021 064 107 075 124 032 086
093 108 090 147 046 036 039 034 048 145 099 042 119 137 105 086 054 033 133 049 031 065 062 021 061 100 075 126 032 086
101 108 095 157 043 036 039 034 048 149 098 044 114 138 106 091 059 031 133 049 032 063 035 016 066 100 067 124 032 083
101 108 095 157 054 036 033 034 048 151 098 032 114 138 106 091 058 032 132 049 030 061 035 021 063 100 067 125 032 083
094 110 090 151 050 036 037 029 042 146 091 035 114 135 108 094 060 032 135 055 028 061 036 021 059 100 070 116 038 086
094 106 090 151 050 036 040 029 042 145 091 035 114 138 108 094 056 032 135 054 028 061 036 022 059 100 070 116 038 086
092 110 094 150 042 036 033 032 042 148 091 032 117 143 104 094 060 031 136 060 031 067 033 015 061 107 074 134 038 082
092 110 089 145 042 036 041 032 040 149 091 032 117 135 105 094 060 031 136 053 031 067 033 021 061 095 067 125 038 086
096 106 095 142 052 037 030 032 042 143 098 032 107 135 104 086 060 033 135 053 035 059 062 021 060 105 066 122 032 086
095 107 095 142 052 036 037 032 042 146 099 032 117 136 104 086 060 033 135 053 030 059 062 017 060 105 066 122 038 086
092 106 094 157 051 034 039 032 048 144 092 059 114 137 107 092 057 035 134 054 028 061 068 015 058 095 067 127 044 085
094 106 094 157 051 034 039 032 048 144 097 056 118 137 107 098 057 032 134 053 031 058 068 015 051 095 067 127 044 085
102 106 089 157 054 035 030 036 048 144 097 032 105 138 107 091 060 031 134 061 029 066 061 015 064 100 075 115 038 084
102 115 089 151 050 035 030 036 048 144 097 032 105 138 107 091 060 031 134 061 029 066 061 015 064 105 075 115 038 084
091 109 094 141 042 033 038 036 048 145 087 033 115 135 104 094 058 033 133 055 030 063 035 021 061 100 075 122 032 081
095 109 094 141 042 043 033 034 048 146 087 033 118 143 104 094 058 033 131 055 029 062 035 021 061 100 075 122 032 081
104 124 088 143 043 036 036 035 047 149 097 059 108 136 107 093 060 031 133 055 029 069 033 023 061 104 075 122 038 087
101 124 088 144 043 036 036 035 047 149 097 059 114 136 107 093 060 032 133 053 029 069 033 017 065 104 075 122 032 087
091 105 097 157 052 034 033 034 043 144 098 042 118 133 105 091 060 032 125 053 029 067 035 015 066 100 069 125 031 084
091 105 097 157 050 034 033 038 043 146 098 042 118 133 107 091 060 032 125 053 029 067 035 015 066 100 069 125 031 084
093 115 094 141 054 036 030 034 049 150 096 043 114 134 105 098 058 033 131 047 035 065 036 015 064 101 069 119 032 089
093 115 095 141 051 036 030 034 049 150 099 043 118 134 105 098 056 033 131 047 035 065 035 017 062 101 069 119 032 089
102 114 096 147 050 037 033 031 042 145 091 042 112 140 106 090 057 031 135 053 029 061 036 023 065 100 067 113 039 084
102 109 096 158 050 037 033 031 042 150 091 042 112 140 094 090 057 031 134 053 029 061 033 023 065 095 067 113 033 084
103 114 090 145 048 036 030 029 045 146 091 060 115 137 103 092 060 031 133 055 029 065 062 015 062 107 076 123 032 086
103 109 092 145 048 036 030 029 045 146 091 042 120 138 103 092 059 031 133 055 029 065 062 021 062 107 076 123 032 085
092 110 094 145 054 037 038 031 042 145 091 056 117 131 105 091 056 032 134 048 029 073 036 023 061 100 069 126 031 082
101 110 094 158 054 037 038 031 048 145 091 056 112 131 105 094 056 032 134 048 029 060 036 023 061 100 069 123 044 082
092 110 088 144 050 035 032 032 042 150 091 060 114 131 107 098 056 035 125 059 031 058 062 017 066 107 075 125 038 086
092 110 097 144 050 035 033 032 042 150 091 060 117 131 107 098 056 035 125 047 031 067 062 021 061 107 075 125 038 086
093 114 094 141 049 037 032 036 048 148 097 035 117 139 107 090 060 032 132 049 032 063 062 022 064 107 066 127 030 084
093 114 089 143 051 034 032 036 048 147 089 035 117 139 107 090 060 032 132 049 028 063 062 022 064 107 075 127 039 084
092 110 092 143 053 036 040 032 048 145 096 042 118 133 104 093 060 030 137 057 029 073 036 021 061 106 069 122 030 084
092 110 092 143 053 036 040 032 048 145 096 042 119 133 104 091 060 030 133 057 029 073 036 021 061 105 075 122 030 084
101 124 095 151 051 036 033 029 048 147 091 059 117 136 103 091 060 030 134 059 029 058 033 021 059 107 069 124 032 085
093 124 095 151 051 036 039 029 048 144 091 059 117 136 103 091 057 034 133 059 029 058 062 021 064 107 069 124 032 086
090 100 090 142 055 038 033 034 047 150 091 035 114 139 108 088 056 034 133 061 036 059 035 018 064 106 077 123 031 079
090 100 093 142 056 038 033 034 047 150 091 035 112 139 108 088 056 034 133 061 036 059 035 018 064 106 077 123 031 079
102 100 092 141 051 035 033 034 047 149 097 035 118 132 093 095 059 029 135 061 028 062 063 017 054 108 069 123 032 081
102 100 092 141 051 035 033 034 042 149 097 035 118 139 093 095 059 029 134 052 028 062 063 017 064 108 069 116 032 081
096 127 095 140 050 038 033 032 042 151 092 035 107 132 107 098 054 033 134 059 028 060 033 016 054 101 074 117 041 081
096 127 095 140 050 031 033 034 042 151 092 035 107 132 103 098 054 032 134 059 031 060 035 016 054 106 074 122 041 087
092 124 087 140 051 036 031 033 052 150 090 034 120 140 105 092 058 033 131 051 032 068 030 016 064 108 077 116 032 085
092 124 092 140 045 036 031 033 052 150 090 034 120 140 105 094 058 033 131 051 032 068 035 016 064 101 077 116 032 085
102 101 092 140 042 035 031 034 048 145 097 043 121 137 109 097 054 033 137 052 028 062 035 015 054 100 074 136 038 088
088 101 093 140 042 035 031 034 048 145 097 043 121 134 109 091 054 034 137 052 028 061 035 015 054 100 074 116 032 088
088 121 095 141 055 035 033 035 048 147 091 034 120 139 107 092 057 033 134 048 029 059 038 022 064 107 076 122 041 085
102 121 095 141 055 035 034 032 048 147 091 059 107 139 107 092 058 032 134 048 029 059 035 022 065 107 076 122 041 085
102 100 089 143 055 036 033 034 041 149 091 058 121 131 109 094 060 034 134 060 028 058 035 023 064 104 076 123 041 079
091 101 089 143 055 036 033 029 041 145 089 058 121 131 109 094 060 034 134 046 030 058 035 023 064 104 076 123 041 079
098 125 087 141 042 038 030 034 047 145 092 043 112 135 107 091 060 032 134 061 032 059 029 015 054 106 077 122 042 084
098 125 095 141 042 038 030 036 047 145 098 043 112 135 107 094 054 032 137 061 028 059 065 015 054 106 078 122 032 086
098 100 092 141 040 032 030 033 040 146 097 043 111 137 093 092 052 031 133 056 029 059 030 016 064 106 068 116 031 089
098 100 092 150 040 032 030 033 040 146 092 035 120 137 093 094 052 031 133 056 029 059 030 021 064 106 068 116 031 089
102 124 089 139 051 038 041 032 045 145 093 035 120 140 108 094 053 031 137 052 029 059 035 016 065 106 068 115 032 088
102 124 097 143 051 037 031 034 045 145 093 035 120 134 108 097 054 034 137 052 028 058 035 016 065 106 068 115 031 084
093 122 088 139 051 041 032 035 043 150 090 036 112 131 093 091 051 032 135 060 028 068 035 016 064 106 076 115 031 086
093 124 088 139 048 041 032 033 043 150 091 036 112 131 093 095 051 032 136 052 028 068 035 019 064 106 068 115 031 086
091 122 092 139 047 041 030 034 047 150 090 035 112 139 101 095 055 035 134 044 032 058 035 022 054 104 077 115 031 084
092 122 092 139 047 041 030 029 047 145 090 043 112 139 101 091 055 035 134 044 032 062 035 022 054 104 077 115 031 084
091 125 093 142 051 036 030 034 048 150 097 043 121 135 107 097 054 034 133 054 029 058 030 016 065 100 067 116 033 081
091 125 093 142 051 036 030 031 046 150 091 035 121 135 105 091 054 034 133 054 029 058 035 016 065 100 067 116 033 089
092 106 098 151 051 033 038 034 045 150 092 041 120 134 101 091 056 030 134 060 033 061 035 020 065 108 074 115 042 085
095 106 098 151 055 036 031 029 047 150 092 041 112 134 103 097 056 030 134 053 033 061 030 016 065 108 074 115 042 085
091 100 092 140 050 037 041 034 047 149 099 040 112 134 106 092 054 030 134 061 028 061 030 016 065 101 078 116 031 087
091 100 087 140 050 031 041 034 048 149 099 058 112 134 106 092 054 031 134 043 028 061 030 022 065 101 078 116 031 087
098 100 087 141 048 036 033 032 047 147 091 043 119 139 107 091 054 033 131 051 028 061 030 020 065 106 066 116 032 087
098 100 087 141 048 036 033 032 047 147 087 033 119 139 107 091 054 033 131 046 028 061 030 020 054 106 066 118 032 087
098 101 087 149 055 034 033 036 047 150 097 043 118 140 101 084 055 033 133 055 028 059 030 022 062 106 074 123 037 087
098 100 090 141 055 034 033 036 047 150 097 043 118 140 101 091 055 033 133 055 029 059 030 022 062 101 076 116 041 087
099 124 097 150 050 034 040 029 045 145 099 043 112 137 101 093 056 032 132 054 032 059 064 016 065 103 077 120 032 080
093 124 097 150 051 034 040 029 045 145 097 042 119 137 101 093 056 032 132 054 033 059 064 016 065 103 077 120 032 079
097 105 097 141 051 036 030 033 047 148 091 035 120 139 105 094 053 033 134 054 031 058 031 022 064 106 074 123 032 087
097 108 095 141 051 036 030 033 047 148 091 035 120 134 107 094 053 033 134 054 029 061 066 016 064 106 074 123 032 087
098 100 089 142 053 035 033 034 049 150 092 059 121 140 106 091 057 035 134 061 033 061 036 015 063 104 075 115 031 079
087 101 089 142 053 035 040 034 049 150 089 043 121 140 093 091 060 035 134 061 033 061 030 015 063 104 074 115 032 079
102 106 087 141 051 041 030 036 039 145 092 038 112 140 107 095 054 033 134 048 033 059 027 021 059 104 068 115 031 084
102 106 087 141 051 035 031 036 039 145 096 038 112 140 107 097 054 035 126 055 033 059 030 021 059 104 076 115 031 084
090 122 089 148 055 032 033 034 047 145 092 044 114 135 107 092 056 032 133 055 029 061 036 020 064 099 068 116 032 079
090 122 089 145 055 032 033 032 048 145 092 032 114 135 107 092 058 032 133 055 031 060 036 016 064 099 068 116 032 079
102 122 087 139 052 031 030 036 047 148 092 034 119 134 104 091 054 032 134 061 028 061 030 018 050 102 073 122 040 087
102 122 092 139 054 034 030 034 040 150 092 034 119 134 101 096 054 034 134 061 028 058 030 016 065 102 073 122 042 087
092 124 092 144 053 035 032 034 040 151 092 042 117 137 107 092 056 034 134 051 029 058 036 016 065 100 076 122 033 079
092 124 094 140 053 035 038 032 040 151 097 042 113 137 107 092 056 034 134 051 029 058 033 016 065 100 076 122 031 079
097 100 095 141 055 036 033 032 045 145 091 058 118 139 107 092 060 033 135 061 027 058 030 015 063 102 074 116 031 088
097 124 095 141 055 035 033 032 045 145 091 058 114 139 093 092 057 033 135 054 027 058 035 016 063 108 075 122 031 088
095 122 093 143 055 041 031 032 047 151 091 043 120 140 109 091 053 033 134 060 032 058 030 020 064 102 067 120 032 084
102 122 093 141 055 041 031 039 045 151 090 043 107 140 109 097 053 033 126 060 032 068 030 016 064 102 076 120 032 080
089 125 087 140 050 036 030 029 042 146 097 059 107 137 093 097 054 032 136 052 031 059 030 016 064 107 077 123 031 079
089 101 087 140 050 036 033 036 042 147 097 059 107 137 107 097 056 031 134 052 031 059 030 016 064 107 077 123 031 079
102 102 096 142 056 036 038 036 047 150 091 042 113 132 104 097 054 032 125 061 032 062 035 016 064 102 076 115 032 081
102 102 096 142 051 038 038 036 047 150 097 042 113 140 104 097 054 032 125 061 028 062 035 016 064 104 076 115 032 081
091 105 097 151 045 035 035 034 047 149 092 034 120 137 104 084 056 029 122 061 029 061 027 016 065 109 074 123 035 081
092 105 097 151 042 035 030 036 045 149 092 034 120 137 104 084 056 029 122 061 029 059 027 016 065 109 074 123 035 081
102 122 095 141 042 036 039 034 046 150 099 035 120 139 101 091 055 034 133 052 032 061 030 021 064 101 074 116 032 086
102 122 097 144 042 035 039 034 046 150 099 035 114 139 100 091 055 034 134 052 032 061 030 021 064 101 074 116 033 086
095 100 087 148 051 038 031 029 039 145 096 042 113 131 093 094 051 032 133 047 031 061 030 016 064 106 076 123 032 080
095 100 087 142 051 038 033 034 047 150 096 042 113 131 103 094 060 032 133 047 031 061 030 016 064 108 076 123 032 081
096 106 090 140 048 036 033 032 049 147 092 042 112 140 107 093 054 033 134 061 032 057 036 016 066 104 076 124 033 084
096 106 090 140 048 036 033 032 045 147 092 043 112 134 107 091 054 033 134 061 032 057 036 016 050 104 076 116 033 086
102 125 092 144 054 035 039 034 047 150 091 035 120 131 104 092 058 029 134 051 028 067 030 021 065 107 076 115 031 088
102 100 095 145 051 035 039 034 047 150 091 043 120 142 104 092 058 029 134 051 028 067 030 021 065 107 076 115 031 088
102 100 097 151 051 032 030 034 040 147 089 059 120 140 107 092 054 034 125 043 029 058 035 015 065 104 075 124 032 084
091 101 092 151 051 032 030 034 039 147 089 059 120 140 101 092 054 034 125 043 032 058 035 015 065 104 075 124 032 084
092 100 087 148 051 041 033 036 048 145 097 043 107 139 107 094 054 031 134 052 028 058 035 021 051 106 069 116 032 081
092 100 097 148 051 041 033 036 048 149 097 043 107 139 107 094 054 031 134 052 028 058 035 016 051 106 069 116 032 081
102 100 090 139 055 041 030 032 041 151 091 034 112 131 107 091 051 033 131 047 029 059 027 016 065 106 074 118 031 084
097 100 090 139 055 041 033 032 045 145 091 034 111 131 107 091 054 033 131 047 029 060 027 016 065 104 074 126 036 080
099 105 094 141 055 034 030 034 048 145 092 035 114 138 107 088 057 030 134 054 028 068 035 014 065 106 069 123 032 087
099 105 094 141 055 034 030 034 048 150 089 035 114 138 101 097 057 035 134 054 028 068 035 014 065 106 069 123 032 087
098 116 087 141 042 041 032 034 045 146 093 035 121 139 107 094 057 029 133 047 030 068 030 021 065 100 074 136 032 084
098 116 087 141 048 041 032 034 045 146 093 035 121 139 107 094 057 029 125 047 030 058 030 020 065 102 069 136 032 084
095 101 089 141 050 032 040 040 039 149 090 042 118 136 103 095 055 033 134 054 031 059 034 016 065 101 074 117 031 079
095 110 089 144 055 036 040 040 047 151 096 042 118 136 102 095 055 032 134 054 030 059 034 016 065 101 074 126 031 080
092 107 091 144 052 037 031 034 048 145 092 043 120 134 100 093 054 032 134 044 028 070 030 016 065 101 075 122 032 081
092 107 091 144 052 033 031 032 048 145 092 034 120 140 107 093 054 034 134 044 028 059 030 022 065 101 075 122 032 081
097 124 091 141 044 036 038 031 042 150 098 036 117 139 109 086 060 032 131 054 033 063 035 016 051 106 066 135 044 088
097 104 091 147 044 037 042 031 042 150 098 036 117 139 109 086 060 032 131 054 033 063 035 016 051 100 066 134 038 088
093 124 093 144 050 037 039 034 050 145 092 034 121 132 104 088 052 033 122 056 037 067 032 021 051 103 075 135 041 086
093 114 093 144 050 036 039 033 050 145 092 034 107 132 104 089 052 033 122 059 028 067 032 021 051 101 075 114 041 086
096 107 095 141 050 036 037 039 048 150 093 042 121 139 101 091 054 030 133 053 028 067 032 021 051 106 077 135 039 085
097 107 095 157 044 036 042 039 048 150 093 042 119 141 101 091 054 030 133 053 037 067 032 021 051 106 077 135 039 085
093 107 096 141 050 036 038 034 050 150 098 042 107 139 107 098 054 032 134 054 032 061 033 020 065 106 068 135 032 080
103 107 096 141 050 036 038 034 050 144 098 042 112 141 107 098 054 032 133 054 032 061 033 020 065 106 068 135 032 086
098 105 094 156 051 037 038 040 048 150 092 034 105 140 103 091 057 031 135 054 032 058 031 023 063 105 068 115 036 087
098 105 094 156 051 036 038 034 048 145 092 034 105 140 103 091 057 031 135 054 032 058 031 016 063 105 068 115 036 087
096 100 089 141 050 037 038 029 050 149 088 042 108 139 107 090 059 032 137 055 030 060 063 016 063 106 077 115 037 081
092 100 094 141 050 037 038 040 050 149 088 042 108 139 107 090 059 032 137 055 030 060 063 016 063 106 077 115 037 083
093 108 098 147 050 036 039 034 042 150 088 043 118 141 108 091 056 031 133 054 032 060 033 020 065 106 068 115 040 085
093 108 098 144 050 036 039 035 047 150 087 043 118 141 108 091 056 032 133 054 032 060 033 020 065 106 077 115 036 085
099 100 088 141 053 036 038 034 042 145 091 042 120 133 108 091 054 030 134 055 031 058 032 019 054 106 064 115 036 088
099 125 093 141 053 036 038 034 042 146 091 042 120 135 107 091 054 030 134 055 037 069 032 019 061 106 064 115 036 088
096 100 093 147 052 036 042 033 048 146 090 036 114 142 107 084 059 032 135 046 028 062 067 016 064 106 068 115 036 086
093 100 094 147 052 036 042 033 048 146 090 036 114 141 107 084 059 032 134 046 028 062 033 022 065 106 068 116 040 086
096 125 096 141 053 037 039 034 048 150 097 043 105 136 104 090 053 033 134 053 031 063 035 022 062 105 068 115 032 084
096 125 096 141 053 037 039 034 048 150 097 043 105 136 107 090 053 033 134 053 031 063 035 022 061 102 068 115 032 084
093 100 089 144 052 037 041 040 048 146 092 060 121 138 102 090 057 034 133 060 031 059 035 022 064 106 070 115 031 086
093 100 089 146 052 036 041 040 048 148 092 060 121 133 104 089 057 034 133 060 031 059 030 022 065 106 070 115 031 087
092 126 091 141 053 037 039 034 041 148 088 034 108 139 106 090 057 033 122 055 033 060 064 016 065 106 076 114 036 081
103 126 091 150 053 037 039 034 042 148 088 034 108 139 106 090 054 033 134 055 033 060 064 016 065 106 076 114 036 087
097 125 097 148 053 035 033 040 051 146 089 044 108 139 102 091 057 031 135 054 037 060 032 020 061 106 070 115 040 080
097 125 097 141 053 036 033 040 051 146 089 044 119 139 102 091 057 031 134 054 031 060 032 020 061 106 068 115 040 080
097 122 097 147 053 035 033 034 042 146 097 035 117 139 106 090 060 031 134 060 033 059 062 017 065 105 064 115 036 081
099 125 097 147 053 035 033 034 050 146 097 058 121 139 107 090 056 031 137 055 033 059 033 016 064 105 077 115 040 081
092 108 092 157 051 042 041 034 048 144 088 043 121 132 102 088 060 033 134 045 032 062 030 020 062 100 067 115 041 086
092 108 092 157 051 042 041 034 048 144 088 043 112 139 107 085 060 033 134 045 032 064 032 020 062 100 067 115 041 086
093 125 094 149 050 035 042 033 043 144 088 035 120 139 107 088 052 033 133 056 032 067 065 016 051 104 077 123 044 087
092 125 094 149 052 036 042 033 043 145 088 035 120 139 109 086 052 032 133 053 032 067 065 022 065 104 077 123 036 087
092 112 095 149 052 037 038 034 048 145 089 035 112 136 107 090 057 031 134 056 033 059 032 021 062 106 069 115 044 087
092 126 093 147 052 037 038 034 050 145 088 035 119 136 107 090 057 031 134 056 033 059 032 021 048 106 069 115 038 087
096 104 093 141 050 035 038 034 042 147 098 043 112 141 107 090 052 033 133 046 028 058 032 016 061 106 077 115 038 086
096 104 091 157 050 035 040 034 048 147 098 060 113 132 101 090 054 033 133 046 028 063 032 016 061 106 077 115 038 086
096 126 091 141 050 037 033 034 050 145 088 034 108 137 104 096 057 034 134 055 037 062 063 017 051 106 069 122 036 084
096 111 091 141 050 037 033 034 049 146 088 034 108 141 104 090 057 034 131 053 037 062 063 017 051 106 073 122 036 087
097 109 091 141 054 036 032 029 040 147 092 058 105 139 103 091 060 033 134 055 037 060 062 021 048 106 069 135 036 088
097 102 091 141 054 036 039 029 040 147 089 035 114 139 104 091 060 033 134 055 037 060 062 021 048 106 069 116 036 088
092 100 094 141 053 036 038 034 049 148 088 056 120 139 104 090 052 032 125 053 032 059 032 023 064 107 077 135 038 086
098 105 096 141 052 036 038 033 049 150 088 056 120 134 104 090 052 032 125 053 032 059 032 023 064 107 077 135 038 086
096 115 089 141 045 036 033 040 050 145 092 043 121 134 102 098 056 033 134 053 031 060 029 016 061 106 069 135 036 080
096 115 093 144 044 037 040 040 048 145 091 043 112 134 102 098 057 031 134 057 031 060 029 016 065 106 069 135 036 080
097 122 091 141 050 039 033 034 045 150 088 043 105 140 107 089 060 030 133 055 037 066 031 020 051 105 075 135 036 085
097 122 091 141 044 037 033 040 042 150 098 058 105 140 107 089 060 030 133 055 032 066 031 017 051 105 075 135 036 085
095 124 094 147 052 038 040 029 042 150 088 056 108 139 107 090 059 032 133 054 037 060 032 016 061 106 066 135 040 086
097 124 094 141 050 038 037 029 042 150 088 056 108 139 107 090 059 031 134 053 037 060 063 016 061 106 066 135 040 086
096 125 093 157 050 036 032 033 050 151 088 035 114 139 101 090 059 033 134 054 032 067 036 016 065 106 069 116 039 088
093 112 093 157 050 036 042 033 050 151 088 035 114 136 101 090 052 033 135 054 032 067 036 020 064 106 069 116 038 081
093 108 096 141 044 037 040 036 048 146 088 034 114 134 108 094 056 032 134 060 031 060 032 017 062 107 067 116 033 079
093 124 094 141 044 036 040 034 048 145 088 043 114 134 108 094 056 032 137 054 028 067 032 017 062 107 067 115 036 086
098 125 095 147 050 038 033 034 051 145 087 035 108 139 104 096 054 031 135 053 032 060 032 021 064 106 068 135 031 087
098 104 095 147 050 038 033 040 051 145 090 035 108 139 104 096 060 032 135 053 037 060 031 021 064 106 068 135 031 084
093 100 089 141 052 036 038 035 042 150 091 034 118 132 093 089 051 033 134 043 030 067 032 023 054 106 077 116 040 087
093 100 089 141 052 036 038 035 050 150 088 040 118 132 093 094 054 031 134 043 030 067 032 023 054 106 077 115 039 081
097 106 091 142 052 037 039 034 048 146 087 058 110 139 106 090 058 033 133 059 031 067 062 023 054 107 068 123 036 086
097 113 091 147 052 037 039 032 048 146 087 057 118 141 106 090 058 033 133 059 031 063 035 023 064 107 068 123 036 083
098 108 095 147 050 033 039 035 050 150 091 043 120 139 105 090 059 034 122 055 032 059 032 017 061 106 076 135 045 086
098 108 095 147 044 036 039 030 050 147 091 035 105 139 105 090 059 032 137 055 037 059 032 017 061 106 076 135 045 086
096 100 095 141 050 042 031 036 050 150 087 058 118 137 106 084 059 031 134 054 031 067 034 023 063 106 067 115 041 080
097 100 095 141 050 042 031 039 050 150 087 058 115 137 106 094 059 031 133 054 031 058 034 023 063 106 069 115 041 080
098 107 096 144 044 036 031 035 042 145 091 034 121 139 107 087 057 033 135 053 037 062 030 016 065 107 068 126 038 085
098 125 096 144 044 036 037 033 048 145 091 034 121 139 107 087 057 033 135 059 037 069 032 023 065 107 068 126 038 085
096 122 091 141 053 038 031 036 049 150 097 035 105 140 107 086 060 033 134 053 032 067 031 021 064 105 063 123 036 084
096 122 088 141 044 038 038 036 049 147 097 035 105 140 107 086 051 033 125 055 032 060 035 022 063 106 063 123 036 084
097 105 093 141 050 042 040 039 049 151 088 058 112 139 109 091 054 031 135 054 030 067 030 016 061 107 069 115 038 084
097 105 093 141 053 037 040 033 049 151 088 058 118 139 101 091 054 032 135 054 030 062 033 020 061 107 069 123 038 084
096 107 093 149 052 036 039 035 047 150 088 035 120 141 104 086 054 031 131 055 032 062 032 016 064 106 063 123 037 086
096 112 094 149 054 036 039 034 041 150 088 035 120 136 104 086 060 031 131 056 032 062 032 016 064 106 077 123 036 086
096 104 095 141 053 036 038 040 047 150 091 033 119 140 106 091 054 033 135 055 033 063 032 020 064 106 069 135 044 087
096 104 096 145 053 037 038 040 048 150 091 036 119 133 106 094 054 033 135 055 033 063 032 021 064 106 068 135 031 087
097 125 095 144 053 036 037 034 048 151 091 056 118 139 106 090 054 034 133 061 029 058 030 022 063 100 070 115 036 080
093 125 095 144 053 036 038 034 048 151 091 043 118 134 107 090 054 031 134 061 029 058 030 016 063 107 070 115 036 080
092 124 093 141 053 036 038 036 047 146 089 034 117 136 103 084 059 033 134 046 033 067 063 023 064 100 068 115 036 085
092 125 095 141 053 036 038 034 048 146 091 042 117 136 103 096 059 033 134 046 033 067 063 023 064 100 068 115 039 085
096 125 093 144 052 036 038 032 050 154 088 033 120 133 106 098 060 030 135 053 030 062 033 020 064 107 069 119 040 079
096 125 093 144 052 036 037 032 044 154 088 043 120 141 106 098 060 030 133 045 031 062 033 020 064 107 077 119 040 079
101 108 092 141 050 037 042 034 042 145 087 058 120 136 102 090 057 031 137 046 030 059 065 016 051 105 069 122 041 084
101 108 088 141 050 037 038 034 042 145 097 058 120 136 102 084 051 030 137 046 030 060 032 016 051 105 069 115 036 084
097 102 089 141 049 033 039 031 049 148 092 034 118 133 105 091 055 033 134 054 032 059 038 023 064 106 063 126 047 083
097 126 089 141 049 033 039 036 044 148 092 034 118 133 105 091 054 033 134 054 032 059 038 022 064 106 063 123 047 083
102 116 089 144 052 033 039 035 045 148 098 032 120 140 105 092 057 032 134 054 029 062 036 021 065 108 069 127 047 089
103 108 094 144 052 033 039 035 045 148 098 032 119 140 104 092 057 032 134 054 030 059 035 021 065 108 069 127 039 087
097 107 092 144 043 036 039 036 042 145 098 034 107 134 105 098 054 033 135 061 033 060 036 016 048 104 069 128 036 083
097 107 092 141 052 036 039 030 042 145 098 042 119 134 105 098 054 033 135 061 033 060 036 016 050 104 069 128 036 083
098 112 094 148 043 033 038 036 048 144 097 040 119 134 103 092 055 033 133 053 029 059 033 019 065 106 073 128 043 083
102 112 089 148 043 033 038 036 046 150 097 040 118 134 103 094 061 034 133 055 029 059 033 019 064 106 073 128 030 084
091 107 089 148 043 036 040 034 043 149 092 034 119 140 101 088 060 034 133 053 029 067 036 022 053 104 070 113 039 087
091 107 089 148 043 035 040 034 043 149 092 034 119 140 102 088 055 032 133 054 029 067 035 022 053 108 070 113 039 087
094 107 089 141 052 035 041 034 042 151 096 033 119 141 105 089 054 034 135 054 030 060 038 016 063 105 076 116 032 083
094 105 089 141 052 035 041 039 042 151 096 033 119 133 105 089 054 034 134 054 030 063 036 016 063 101 076 116 030 083
091 116 089 158 043 034 031 030 046 145 088 045 120 140 101 089 055 033 133 061 029 065 033 023 054 100 063 126 042 084
093 116 089 158 043 034 032 030 046 150 097 036 120 140 101 089 055 033 133 061 029 065 036 022 064 100 063 116 042 084
093 107 093 148 050 034 030 036 050 145 098 045 107 133 105 090 055 032 135 053 028 061 036 015 063 099 070 123 032 087
093 107 090 148 042 034 030 036 050 149 098 041 107 133 091 090 055 032 135 053 028 061 036 015 063 099 070 123 032 084
102 124 089 158 049 035 031 033 046 148 094 046 108 133 105 091 059 034 134 050 032 059 063 023 065 106 076 123 047 084
102 114 089 158 042 035 031 033 046 148 094 046 108 134 105 091 059 034 134 050 032 062 063 022 065 106 068 123 047 084
103 114 088 144 050 035 032 040 042 143 098 060 120 134 093 098 057 032 133 050 028 069 038 022 054 107 070 126 030 082
103 114 088 150 050 035 032 040 042 143 098 033 120 134 093 098 057 033 133 050 028 069 038 022 065 107 070 126 044 082
098 114 090 150 044 033 032 031 048 150 097 033 112 134 093 088 057 032 135 054 028 062 037 022 064 095 076 116 043 086
098 114 090 150 044 033 040 035 048 150 097 033 112 134 093 085 057 034 135 046 028 062 036 022 064 095 070 116 043 082
099 110 095 148 052 033 030 036 048 150 094 042 107 134 102 089 060 033 133 055 029 059 035 021 060 100 067 116 032 083
102 107 095 148 051 033 030 036 046 145 097 042 107 134 104 098 060 032 133 055 029 059 034 021 051 100 076 134 033 083
092 112 093 144 050 035 032 036 044 150 097 046 118 133 104 092 060 033 135 055 029 059 062 022 064 100 071 128 031 084
092 112 093 144 052 035 032 036 048 150 097 045 118 133 101 098 054 033 135 055 032 059 063 022 052 100 071 128 031 084
091 124 089 148 044 033 033 031 042 145 097 036 119 140 101 091 061 030 138 054 033 060 034 020 061 106 067 115 031 080
091 107 091 148 052 036 033 034 042 144 097 036 119 140 101 091 061 030 138 054 033 060 038 022 061 106 067 126 031 084
093 108 093 144 044 036 040 036 042 150 097 034 118 138 106 092 057 033 131 047 034 059 065 018 066 104 068 115 031 084
093 108 087 144 050 034 040 036 046 150 097 034 107 134 106 090 057 033 131 047 034 059 035 016 066 104 068 115 031 084
097 114 093 139 050 034 041 029 042 145 098 041 119 140 105 092 054 033 138 057 029 061 063 022 061 109 066 115 043 087
097 109 093 139 050 034 041 029 048 146 096 041 120 140 104 092 054 033 138 057 029 061 037 022 061 108 075 115 043 087
093 107 092 144 050 036 039 039 044 145 094 042 107 131 104 092 059 032 135 053 028 059 062 022 065 108 068 122 039 082
093 107 092 144 050 034 039 039 044 145 094 042 107 131 104 092 060 032 135 053 029 062 062 021 065 106 068 134 039 087
092 103 095 144 053 041 037 030 048 150 097 046 120 140 103 095 057 030 134 046 034 062 036 023 048 108 063 126 031 087
092 103 095 144 049 041 037 035 048 150 097 046 120 136 103 093 055 030 134 054 034 062 036 023 061 108 063 122 031 082
098 116 090 148 044 035 041 034 046 148 091 042 119 142 106 089 055 030 135 054 028 059 063 022 060 105 063 122 043 083
093 114 090 148 044 036 041 039 046 148 091 042 119 142 106 089 055 030 133 054 028 059 036 022 060 109 066 122 039 083
101 113 089 148 043 036 030 040 048 150 097 035 120 135 101 094 055 030 135 057 029 067 036 022 061 108 068 134 039 084
101 113 089 148 042 036 030 040 048 150 097 035 120 135 101 094 055 030 135 054 029 062 035 022 054 108 068 134 044 084
090 106 089 141 042 035 039 035 048 147 091 034 119 133 105 089 055 030 133 050 029 059 036 016 062 100 068 122 044 084
097 106 089 141 052 035 039 035 048 147 098 044 119 133 105 089 055 032 136 046 029 059 036 016 062 105 068 122 044 084
089 114 088 144 052 033 038 033 045 149 091 059 118 133 092 092 055 033 133 053 027 067 036 022 053 095 063 122 033 084
089 114 088 144 052 033 038 033 045 145 091 059 118 139 092 092 055 031 133 053 029 067 036 022 048 095 063 128 033 084
093 124 089 143 050 035 032 033 046 150 097 041 119 133 101 089 055 033 134 059 029 059 029 020 051 105 074 126 039 084
093 124 089 149 050 036 032 033 042 150 097 041 107 133 101 089 055 033 134 059 029 059 029 022 065 105 074 126 039 084
093 110 092 149 044 032 040 030 048 150 091 060 120 142 093 092 058 034 135 055 029 069 036 021 061 105 070 122 037 087
092 110 092 149 052 032 040 033 048 150 091 060 120 142 103 095 054 033 133 055 029 069 036 021 061 105 070 126 037 087
093 113 087 148 049 033 030 030 047 150 097 057 119 133 091 094 057 032 133 054 028 062 032 023 064 108 069 126 036 087
093 113 087 148 049 033 030 039 047 150 097 057 119 133 091 094 054 032 133 054 034 062 032 023 064 108 070 126 038 085
103 124 095 144 050 034 041 038 050 145 091 046 107 139 092 091 054 033 133 052 028 067 038 022 051 105 070 134 039 084
102 107 088 144 042 034 035 035 050 143 091 046 107 141 105 093 060 030 134 055 029 067 038 022 065 105 070 115 039 083
093 104 088 150 042 042 039 033 050 151 088 059 120 139 108 089 060 036 133 055 028 059 036 022 051 095 071 122 031 080
093 116 093 148 042 042 039 036 050 151 097 034 120 139 108 088 060 036 133 055 028 059 035 022 051 095 071 122 031 080
092 116 088 148 044 033 033 039 048 149 098 035 119 134 101 090 060 033 135 057 029 064 036 024 061 109 069 115 043 084
092 116 088 148 044 038 033 039 048 149 097 034 119 134 101 093 057 033 135 057 029 064 036 024 061 109 063 115 043 084
102 115 089 147 043 033 030 031 047 149 094 058 107 132 101 092 054 032 134 054 029 067 035 015 054 103 068 134 044 084
102 115 089 147 043 034 038 030 046 149 094 058 107 132 101 092 054 032 133 054 028 069 035 015 054 101 076 134 044 084
097 112 088 157 050 037 031 030 044 150 098 059 119 140 100 095 057 032 135 049 030 064 030 021 061 103 067 124 031 082
097 112 090 157 050 037 040 039 047 150 098 059 119 140 105 095 060 032 133 049 030 064 030 021 061 103 067 124 043 082
093 107 088 148 050 033 041 039 041 149 089 046 118 133 108 088 055 032 133 054 029 060 063 023 064 105 069 134 036 087
092 110 088 148 050 033 041 039 041 150 097 046 118 133 108 088 060 032 133 054 029 060 063 023 065 099 069 115 036 087
093 106 089 148 050 036 040 032 041 148 097 033 121 134 101 085 060 034 134 050 035 064 036 022 065 103 068 122 033 083
093 106 089 149 050 036 040 031 041 148 097 033 121 134 103 085 057 034 134 050 029 064 036 022 065 109 068 124 030 083
092 110 094 148 044 033 031 039 042 150 091 042 120 138 104 091 060 032 134 053 028 073 030 016 050 108 070 122 030 087
092 125 094 148 044 033 037 039 044 151 097 042 120 138 101 091 060 032 134 054 028 073 030 015 065 107 069 122 032 087
095 115 087 148 052 038 037 039 048 145 098 046 120 133 101 088 055 034 137 059 028 069 035 016 051 105 063 122 040 084
095 105 092 144 052 038 037 039 042 146 091 058 120 133 101 088 060 032 137 055 028 062 035 016 065 105 063 116 040 084
092 110 088 144 042 034 040 030 044 145 088 032 120 140 102 086 060 032 135 061 028 069 034 022 048 100 075 116 031 087
102 110 088 144 042 034 040 030 044 145 088 032 118 140 102 086 060 032 135 054 028 067 035 022 064 100 076 116 031 083
102 107 093 148 049 036 032 036 049 148 091 042 118 134 091 091 061 032 133 053 034 060 063 020 048 100 076 124 041 086
102 107 093 148 043 036 032 036 042 150 091 033 107 134 091 092 061 032 133 053 034 060 036 020 048 101 076 124 041 086
097 105 091 149 053 036 037 030 049 144 092 034 112 139 101 089 059 033 131 053 029 059 035 022 065 105 075 135 030 085
097 107 091 149 052 036 039 030 049 144 092 033 112 140 101 089 059 034 135 053 029 059 036 015 065 105 069 135 030 084
098 125 087 150 049 033 032 033 046 150 097 059 120 135 102 098 060 033 135 048 028 062 063 021 054 109 067 134 044 083
101 109 089 150 049 033 032 035 048 150 097 059 120 135 102 098 057 032 135 054 029 059 063 021 064 108 067 134 044 083
101 108 089 148 053 038 035 030 045 149 091 035 118 134 101 089 061 030 134 050 029 058 062 020 050 108 068 119 032 085
092 108 089 148 053 036 035 035 045 149 091 046 118 140 101 089 061 030 134 050 030 058 036 021 050 108 068 117 032 083
093 100 089 148 050 032 036 034 045 145 096 034 118 142 103 089 054 033 133 061 033 069 034 022 061 108 075 114 041 083
097 100 089 148 043 032 036 034 045 147 096 034 118 134 105 089 055 033 135 049 033 062 034 022 061 104 075 124 039 083
099 110 097 145 051 035 040 032 045 150 095 042 118 136 105 097 055 033 130 047 032 060 036 017 059 107 066 116 041 083
093 110 095 145 051 035 036 032 045 150 095 042 118 136 104 097 056 033 130 047 037 060 068 017 059 107 066 116 041 084
091 125 094 146 048 033 040 034 042 150 090 042 118 140 093 093 057 035 134 059 033 059 036 018 051 101 066 120 043 084
091 112 089 146 050 033 036 035 045 150 089 042 119 136 093 093 057 033 130 059 033 062 036 015 051 101 067 120 043 085
093 114 095 150 050 034 040 036 048 150 090 060 112 140 105 092 058 032 133 053 032 063 032 016 062 096 068 122 038 087
089 114 092 150 051 035 040 036 048 150 090 060 118 140 103 099 054 032 133 053 032 063 032 017 062 106 067 122 043 083
093 101 094 145 051 035 040 031 044 150 089 041 111 140 106 087 057 031 137 054 037 057 035 023 067 106 067 113 043 088
093 108 092 146 051 037 040 036 044 150 089 041 111 140 106 087 057 031 137 054 037 058 035 023 067 106 067 115 043 088
102 108 094 149 051 036 037 036 045 150 089 059 108 141 093 092 054 032 137 059 034 066 036 018 057 101 067 118 038 080
100 108 093 149 051 036 037 036 045 150 089 059 108 137 093 096 054 034 137 059 033 066 036 018 061 101 067 118 038 080
093 112 095 142 051 034 032 031 044 150 091 042 114 136 103 089 057 029 136 053 028 073 035 016 065 096 068 113 038 085
093 112 095 142 051 037 039 031 044 150 091 042 112 136 103 089 055 029 134 053 032 073 035 017 065 097 066 126 038 085
098 113 093 145 050 033 031 036 042 150 089 058 118 139 107 093 057 033 136 047 032 063 074 016 052 106 072 123 045 081
098 101 093 145 044 033 031 029 042 146 089 058 118 139 107 093 057 033 136 047 033 063 036 016 052 106 072 123 045 081
093 108 093 147 051 033 037 035 042 146 097 060 111 136 103 087 060 035 137 047 034 059 036 016 052 096 066 118 040 085
093 108 096 147 051 033 037 035 042 146 097 060 118 139 104 092 055 035 137 047 034 059 036 016 052 097 066 119 040 085
089 108 092 141 051 036 032 029 042 150 095 059 111 141 108 097 061 032 136 046 032 058 036 018 062 102 066 123 038 084
094 108 096 141 051 036 032 034 042 150 095 059 111 141 108 097 053 032 133 046 032 058 036 018 062 107 066 123 038 084
102 109 096 146 051 035 036 034 044 150 090 059 119 140 104 092 058 030 128 054 034 059 036 018 061 107 066 118 043 081
089 109 096 146 051 035 036 034 044 150 090 059 119 140 104 092 058 030 137 054 034 058 036 018 059 101 077 118 043 081
097 108 095 144 051 036 037 034 045 146 090 041 118 133 108 085 054 032 136 053 028 067 036 018 052 107 066 123 038 084
097 108 095 144 050 036 037 034 045 150 090 041 118 133 108 085 057 032 136 053 028 067 037 018 052 107 066 114 038 084
088 108 092 145 051 035 036 036 044 150 089 042 118 136 103 084 055 033 133 053 032 058 036 017 050 107 069 120 042 083
088 108 093 145 051 035 036 036 044 150 089 042 118 139 103 084 055 032 133 053 032 058 036 017 050 107 069 120 042 081
089 106 094 141 052 037 033 034 046 146 097 044 111 139 105 092 057 035 133 054 028 059 035 017 052 106 072 135 043 083
089 106 094 149 052 035 033 029 046 146 097 042 111 140 104 092 057 035 135 051 033 063 035 017 052 106 072 135 043 083
093 114 092 144 051 037 040 031 045 149 090 058 118 132 107 088 056 035 134 050 032 058 034 016 052 106 067 122 038 084
093 110 095 144 051 037 040 034 045 149 090 042 111 132 107 088 056 030 133 050 032 058 035 016 052 106 067 122 043 084
101 108 092 147 053 035 036 034 042 149 090 058 118 138 107 092 058 035 136 053 028 058 068 023 064 106 066 116 038 083
101 108 092 147 053 035 036 036 042 149 090 058 111 138 107 092 058 032 136 053 028 060 037 023 051 106 066 116 038 083
089 099 089 149 051 035 036 034 045 144 089 042 112 141 104 084 055 031 138 047 033 063 062 017 062 105 073 121 038 081
095 099 089 149 051 034 036 034 045 144 089 042 111 141 104 084 055 031 133 055 033 063 062 016 062 107 073 113 038 081
098 108 094 146 051 035 033 033 046 147 097 058 118 136 103 087 057 035 130 054 028 059 074 020 058 106 072 122 042 089
098 112 094 146 051 035 033 033 042 147 097 042 118 136 104 097 055 030 136 054 032 059 074 020 058 106 072 122 043 080
102 122 096 148 050 033 029 039 045 146 090 042 120 136 101 097 058 035 128 053 032 059 036 020 064 107 067 118 038 080
098 122 095 149 050 033 029 034 045 146 096 060 120 136 104 088 058 035 128 053 034 059 036 017 064 107 067 122 038 080
093 101 090 145 044 036 037 033 044 146 089 057 119 140 104 092 055 032 137 053 034 059 068 020 066 106 066 121 038 084
102 101 090 145 044 036 040 033 044 150 089 041 119 140 104 092 056 032 137 053 034 059 068 018 052 106 066 121 038 084
093 109 092 150 044 036 031 034 042 149 089 058 118 136 102 092 056 030 136 048 033 063 034 018 065 107 065 113 038 084
102 109 097 150 044 036 036 034 045 149 089 060 118 136 103 089 058 030 136 048 033 063 034 018 065 107 065 123 038 081
102 101 091 149 049 035 031 032 042 148 097 059 108 139 102 093 055 032 137 051 033 060 063 016 062 106 067 117 040 086
102 100 095 149 049 035 031 032 042 148 090 058 118 139 102 093 055 032 134 051 033 060 063 016 062 106 067 117 040 084
093 113 093 149 051 033 033 036 045 149 091 056 108 139 104 087 055 032 138 047 032 059 030 016 062 096 068 116 043 080
093 113 093 149 051 034 033 036 045 150 097 056 108 139 105 087 055 032 138 055 029 059 030 016 062 096 065 116 039 080
093 100 095 149 050 034 037 031 044 152 095 034 118 139 104 092 058 033 136 046 028 058 036 016 062 107 065 115 042 083
093 100 091 146 050 034 037 031 045 150 095 034 118 139 105 091 058 033 136 046 033 066 036 018 062 107 065 113 042 084
102 122 096 144 050 037 032 031 042 150 090 055 108 139 104 091 055 035 136 056 037 058 062 021 062 096 069 118 043 084
093 122 096 144 050 037 032 035 046 146 090 055 108 139 104 091 055 035 136 056 037 058 062 016 062 096 066 118 043 084
098 127 090 149 053 036 039 035 045 150 094 058 122 139 104 098 058 030 131 051 032 061 062 017 066 097 073 126 042 081
098 101 090 149 053 033 031 035 045 150 091 058 122 136 104 098 055 035 135 051 032 061 062 017 066 097 069 126 042 081
098 101 096 146 053 033 031 036 045 150 088 042 119 136 104 091 058 033 134 060 027 058 037 020 062 100 067 115 043 086
098 101 091 146 051 036 041 035 045 150 088 059 119 136 103 091 058 033 134 060 027 058 037 020 062 100 068 115 043 086
089 101 094 145 048 033 031 034 042 149 098 044 111 136 104 092 058 032 136 055 032 066 036 017 054 100 066 114 043 084
093 110 094 145 048 033 031 034 051 149 089 044 111 136 104 084 058 032 136 055 032 066 036 017 051 100 066 115 043 084
101 100 089 149 050 040 036 034 042 150 089 058 111 136 103 087 058 033 136 046 028 058 036 018 052 101 068 113 043 087
101 107 093 149 041 040 041 034 042 150 090 042 107 136 103 088 055 033 137 046 028 059 036 018 057 101 066 113 043 084
093 122 093 147 049 035 040 031 042 150 090 042 119 136 104 092 057 035 136 054 028 058 035 016 062 106 066 120 043 080
093 122 092 147 044 035 040 040 042 150 090 041 119 136 104 092 057 035 136 059 028 058 035 016 062 106 066 122 043 080
093 112 097 147 051 035 031 031 048 150 089 059 118 140 102 092 058 032 136 051 032 062 036 020 064 106 066 121 040 081
093 112 097 147 051 035 031 036 048 150 089 058 118 140 102 092 058 032 137 054 032 059 037 020 064 107 066 121 038 081
093 108 096 146 051 035 041 034 045 144 089 040 122 141 104 088 057 033 136 053 028 062 037 018 052 107 066 122 043 084
093 113 096 149 051 035 041 034 042 152 089 040 122 141 104 088 057 033 136 053 028 062 036 018 052 107 066 122 043 085
101 101 092 148 050 037 036 034 045 150 097 042 107 139 104 096 057 033 136 053 028 067 037 016 051 106 066 113 043 081
098 101 092 148 050 037 036 031 045 150 090 042 107 139 109 096 057 033 138 053 028 067 037 016 052 106 066 113 043 085
097 122 092 143 051 035 033 031 044 150 089 040 119 139 104 088 058 033 136 053 032 063 035 021 052 106 068 120 045 084
097 122 092 144 051 035 033 031 044 149 089 042 119 139 104 088 058 033 136 053 032 063 035 016 052 106 068 121 045 084
098 105 095 148 050 034 036 033 045 150 095 058 111 136 102 089 058 034 136 051 034 058 036 018 065 096 068 120 043 082
098 105 095 149 050 037 036 033 048 150 095 058 118 139 102 089 058 034 136 051 034 059 036 018 065 096 068 120 043 082
098 104 097 145 052 035 031 035 046 150 089 044 115 136 103 092 058 032 136 051 032 063 035 017 051 107 067 116 042 089
098 104 096 145 052 035 031 034 046 146 089 057 115 136 103 096 058 032 136 051 032 058 035 017 051 107 067 114 042 085
090 113 093 149 050 036 040 036 044 149 089 058 118 134 104 088 058 033 134 053 028 062 036 016 061 106 068 117 043 089
102 113 093 149 049 036 040 036 044 152 089 058 111 136 104 088 058 033 134 053 028 062 029 016 061 106 068 117 043 084
097 122 095 148 050 034 036 034 045 150 090 058 109 139 103 096 058 032 128 054 028 066 036 018 051 106 066 122 039 085
097 122 095 148 050 034 036 034 042 150 089 058 109 139 107 096 058 032 137 054 028 058 036 017 051 106 067 122 039 085
091 101 095 149 048 033 040 034 045 150 088 058 119 136 102 099 058 035 137 051 034 061 031 015 051 107 066 118 038 081
091 101 095 149 048 033 036 034 045 150 088 058 119 136 102 099 058 035 137 051 034 061 035 015 051 107 066 118 038 081
098 106 094 149 050 036 036 033 045 151 097 042 115 136 104 093 057 035 137 047 028 063 036 018 052 107 073 117 046 080
098 106 094 144 050 033 042 031 045 151 097 042 115 139 103 093 057 035 137 047 028 062 062 018 054 107 069 113 046 084
098 107 093 150 051 036 036 029 042 150 089 041 111 134 104 088 058 031 136 053 032 062 036 017 052 106 072 121 038 085
098 122 090 150 056 036 036 029 042 150 089 041 111 134 104 088 058 031 136 051 032 062 036 017 052 106 072 121 031 085
096 100 095 146 047 036 034 037 048 146 090 042 118 138 108 086 054 035 136 057 028 062 036 017 061 107 069 116 039 083
096 100 095 146 047 038 034 037 048 147 091 042 108 138 108 086 054 035 136 057 028 062 036 017 061 100 067 116 039 083
102 110 094 139 051 036 031 034 044 145 094 043 115 138 104 092 054 034 136 053 028 066 031 017 065 106 066 118 038 084
102 110 094 142 051 036 031 034 044 145 088 042 115 138 105 094 054 032 136 053 028 066 031 017 065 106 066 118 038 084
093 104 096 139 051 032 033 037 044 145 096 042 112 132 093 093 056 035 134 053 028 067 030 022 059 100 069 122 042 084
093 111 096 139 051 037 033 037 044 145 096 042 112 135 093 093 056 033 133 057 028 067 030 022 059 107 069 121 038 084
102 106 092 141 047 036 039 033 045 145 090 042 108 135 105 092 057 033 136 054 034 058 036 020 059 107 077 122 033 084
102 106 092 141 049 032 034 038 045 145 090 042 108 135 105 092 058 032 136 054 034 072 028 015 059 107 077 113 045 084
103 111 091 139 050 036 039 033 044 150 099 044 108 138 105 092 055 035 136 057 033 058 030 016 062 109 066 118 038 083
093 111 091 139 050 035 032 033 044 150 090 042 108 138 105 092 055 035 136 057 033 059 030 023 062 109 066 118 038 083
091 121 098 146 052 037 039 034 048 147 091 043 108 136 093 092 055 035 136 053 028 063 036 023 061 102 069 116 037 084
091 122 089 143 052 037 039 034 048 147 094 058 108 136 093 092 055 035 136 055 028 063 036 023 062 101 069 116 036 084
093 100 093 150 040 036 039 034 042 145 097 043 112 136 102 092 055 031 130 060 028 066 067 020 064 106 077 122 044 088
093 100 093 150 040 036 039 034 045 147 097 044 118 136 104 092 055 031 130 060 033 066 067 017 061 106 076 122 044 088
095 121 089 143 049 037 039 035 045 148 098 041 108 138 106 089 055 032 132 060 028 067 036 020 063 105 067 122 036 089
094 121 089 143 051 038 039 034 045 148 098 041 108 136 093 094 055 032 132 050 034 057 036 020 063 105 067 122 036 083
091 125 098 146 050 036 039 034 044 147 089 044 115 136 104 088 058 032 137 060 028 058 033 020 059 107 069 118 036 081
091 125 089 146 050 036 039 034 044 147 089 044 115 136 104 088 056 033 131 060 028 062 033 016 059 106 067 135 035 081
093 122 092 144 045 037 039 039 044 147 096 042 111 140 108 092 052 034 135 061 032 066 030 017 051 100 067 135 033 089
093 122 092 144 045 037 039 030 044 147 096 042 108 140 108 092 052 034 133 061 033 066 030 017 051 100 069 135 039 089
103 122 096 149 054 038 034 033 045 145 098 059 116 135 093 089 056 031 136 053 028 061 028 016 059 101 067 116 036 082
103 122 096 149 054 038 034 033 048 145 098 059 108 135 104 089 056 031 136 053 028 061 028 016 061 101 067 116 041 082
092 106 088 150 052 033 039 034 044 148 091 034 108 140 102 092 060 034 124 047 028 063 065 020 064 107 069 122 040 084
092 100 093 150 052 036 039 034 044 148 091 034 108 140 102 092 060 034 133 054 028 058 065 020 062 107 069 118 040 084
103 124 092 145 052 034 031 035 048 146 096 034 115 140 093 089 055 033 133 047 029 062 063 015 062 109 077 113 038 080
103 124 092 149 047 034 031 035 048 146 096 034 118 140 093 089 059 033 133 047 029 062 065 020 062 106 077 113 038 083
102 110 093 143 045 036 039 038 043 147 097 042 118 135 093 091 055 035 136 054 033 063 036 022 059 100 070 113 036 089
102 110 093 143 045 036 039 038 043 147 091 042 118 138 093 091 055 033 136 054 033 063 036 022 065 100 066 118 033 089
091 105 096 145 050 041 038 034 042 148 094 043 118 139 093 091 058 035 133 050 028 066 036 022 053 106 077 116 040 083
091 105 096 145 045 036 039 034 042 148 094 043 118 139 093 091 058 034 133 050 028 057 036 022 052 106 077 116 038 083
091 100 089 143 045 036 039 038 048 146 090 041 115 140 103 092 055 033 132 061 028 067 034 015 063 106 069 118 036 080
091 100 094 143 045 035 039 034 048 146 090 044 112 140 103 092 058 033 132 054 028 067 028 022 063 106 069 113 036 080
100 100 093 150 049 035 039 035 045 147 098 042 116 138 106 091 055 033 133 047 029 061 036 023 063 100 075 122 043 086
100 104 093 150 052 035 034 034 040 147 098 041 116 138 106 092 055 033 133 057 029 061 036 016 059 100 068 135 043 086
094 122 098 150 047 036 033 034 042 148 094 042 122 133 103 093 052 032 136 057 033 062 034 015 063 103 067 118 038 085
092 122 098 146 052 041 033 034 042 148 094 042 122 133 103 093 055 032 136 057 037 066 034 015 053 106 067 118 030 085
093 105 089 139 052 036 040 034 044 147 098 043 118 138 104 092 058 035 136 055 028 062 030 018 062 106 075 122 036 088
093 106 089 139 052 036 040 034 044 147 092 043 118 138 102 092 058 033 136 053 032 062 030 018 062 106 075 122 038 088
093 121 090 145 051 033 031 034 048 147 094 058 108 135 103 095 055 035 134 053 029 067 064 020 052 104 066 115 036 081
093 121 093 143 051 037 031 034 048 147 094 058 115 135 103 095 055 035 135 054 029 067 064 022 052 106 066 115 036 081
094 110 096 146 040 035 040 034 045 147 097 044 118 139 103 090 058 032 136 053 029 067 030 016 062 107 067 112 040 080
101 104 096 147 040 035 040 034 045 147 089 044 118 139 108 090 058 032 136 053 034 067 030 016 062 105 066 112 038 080
101 110 088 150 050 037 039 040 045 145 092 058 117 136 103 091 058 033 134 057 028 063 030 019 059 106 070 113 038 083
101 121 088 145 050 037 039 031 045 145 096 058 108 136 103 092 059 034 134 057 028 063 030 014 059 106 069 122 038 085
103 111 089 139 051 036 033 028 041 147 094 041 108 138 104 092 057 033 133 057 028 066 037 016 062 105 065 135 044 080
103 111 090 139 051 036 032 038 045 147 094 041 108 138 104 092 057 033 135 057 028 066 037 023 062 107 065 118 044 080
091 106 095 146 042 038 038 034 042 145 099 042 116 135 101 089 054 035 137 053 028 072 065 016 053 107 065 123 038 080
091 106 096 146 051 036 038 034 042 145 099 042 113 136 103 089 055 035 137 053 028 058 065 015 053 107 065 118 039 084
091 105 089 145 050 033 031 035 040 145 096 042 111 138 093 093 055 024 124 047 028 067 033 020 063 103 069 113 038 084
091 105 089 146 050 033 031 035 045 147 096 042 111 138 093 093 059 035 131 047 028 067 033 019 063 103 070 113 038 084
091 111 090 150 040 032 039 033 044 146 087 042 108 135 102 089 054 033 131 061 029 063 036 016 053 107 067 118 042 089
101 111 090 150 051 032 039 030 044 146 087 042 108 135 102 092 054 034 131 061 029 066 036 016 053 106 067 118 042 089
100 100 096 143 045 037 039 034 043 145 094 058 108 138 106 095 057 032 128 047 033 066 036 023 053 103 066 116 031 084
092 100 096 145 052 037 039 028 048 147 094 058 120 138 105 091 057 033 128 047 033 066 036 023 065 103 066 116 031 084
102 104 093 149 052 037 031 028 048 148 096 042 108 140 104 092 055 036 134 053 035 063 030 017 053 100 075 118 036 081
102 104 089 149 052 038 039 028 048 148 096 042 108 140 093 086 055 036 134 057 028 063 030 017 062 100 075 118 036 089
093 100 098 150 045 036 034 030 045 149 091 042 122 136 093 091 059 032 137 054 028 058 030 023 065 101 069 118 038 088
093 100 098 149 045 036 034 030 044 145 091 042 122 138 100 091 059 033 137 054 028 067 036 023 065 101 067 118 038 088
093 111 094 142 050 036 039 034 044 147 092 042 108 138 093 091 054 034 133 052 028 066 036 022 064 107 066 122 036 087
093 105 094 143 042 036 039 034 048 146 092 042 108 138 104 091 059 034 136 052 028 062 036 023 064 106 066 118 036 087
101 100 098 145 052 036 039 030 042 145 095 058 108 133 093 090 055 032 133 047 035 066 036 015 059 107 069 122 030 084
091 100 098 145 052 036 039 034 042 145 095 058 108 133 093 089 055 032 133 047 028 066 036 015 061 107 069 122 030 084
093 122 094 142 051 036 040 034 048 145 091 043 111 137 103 092 055 033 133 053 033 062 033 016 051 106 067 122 032 089
093 122 094 142 051 036 040 034 048 145 091 043 111 137 103 092 055 033 133 053 028 062 033 022 053 107 067 122 032 089
095 105 094 149 051 033 039 032 048 145 091 058 108 135 104 092 059 033 133 053 028 059 036 019 052 105 069 124 032 081
095 105 094 149 051 036 039 032 048 145 091 058 118 135 104 086 059 032 133 053 028 058 028 019 052 105 069 122 044 083
094 106 092 139 047 038 039 034 042 147 091 043 118 135 100 092 056 035 136 048 028 063 028 015 059 101 067 113 044 084
094 106 092 139 050 036 039 034 042 147 088 042 118 135 100 092 055 035 136 048 028 063 028 015 059 107 069 113 036 084
093 111 092 149 051 035 031 034 044 146 091 041 108 138 103 095 055 035 133 053 033 063 030 018 051 101 076 122 038 081
093 111 095 149 051 035 031 034 044 146 091 041 112 140 103 089 055 035 133 053 033 063 037 018 051 103 076 122 038 081
095 122 089 146 051 036 033 038 042 147 094 042 119 138 108 091 058 031 128 053 028 063 036 015 064 109 069 122 047 089
094 122 089 143 051 036 031 038 042 147 094 043 108 138 104 091 055 031 137 057 033 063 030 015 064 109 069 122 047 089
103 106 098 145 052 041 039 033 040 146 089 058 108 135 093 091 058 035 136 053 028 062 037 015 051 101 066 135 047 085
103 121 098 145 052 041 032 033 040 146 089 042 112 135 093 091 058 035 136 053 028 062 037 015 051 101 066 135 047 086
091 106 094 145 052 036 036 034 044 148 098 058 108 135 093 095 058 032 136 053 028 066 065 016 052 105 069 122 038 084
101 106 098 146 052 036 036 034 044 148 092 058 115 135 105 095 058 032 136 053 028 066 065 016 052 105 066 118 038 084
091 104 095 145 051 037 039 034 044 145 095 042 116 138 093 092 055 034 124 047 032 072 067 016 063 103 066 113 042 083
091 106 095 143 051 037 039 034 042 145 097 042 116 133 093 092 055 034 133 047 032 072 067 016 063 103 066 113 042 080
094 110 095 149 050 034 030 034 044 147 089 042 112 139 106 093 054 035 134 047 032 062 067 018 065 106 069 135 042 090
094 110 095 149 050 034 030 034 043 147 089 034 112 139 106 093 054 035 137 047 028 062 067 016 065 106 069 135 042 090
102 112 089 148 051 036 039 034 050 150 086 044 118 135 093 091 055 031 136 051 030 063 037 022 061 100 077 113 039 084
102 125 089 148 051 036 039 034 043 150 086 044 114 137 093 091 057 031 136 046 028 066 064 022 061 100 069 113 039 084
102 105 095 146 042 033 040 024 044 145 088 043 114 138 103 092 053 032 134 055 029 063 064 016 053 096 066 113 037 085
102 121 095 146 052 033 036 024 044 145 091 043 114 138 103 092 053 036 133 055 029 063 064 020 053 096 066 113 039 084
091 112 096 144 052 037 033 034 046 146 086 058 119 134 093 092 056 033 136 051 033 062 037 016 053 106 068 127 038 084
091 125 096 144 052 037 033 034 046 146 086 058 119 134 093 092 051 033 136 058 029 062 037 016 053 100 068 115 039 084
097 112 095 148 051 036 031 038 044 145 098 059 120 132 104 091 055 033 132 060 033 058 036 016 065 106 066 124 040 084
097 112 095 148 051 036 031 035 044 147 098 059 120 132 104 091 055 034 124 060 029 058 069 016 065 104 066 124 040 084
094 104 090 151 042 036 041 027 049 148 091 032 114 137 104 091 054 031 134 053 032 066 029 020 064 099 071 116 030 090
094 104 090 151 042 036 041 027 049 145 091 032 114 137 107 091 054 036 134 053 032 066 029 022 047 099 071 116 030 084
094 104 088 151 052 034 037 027 049 148 098 058 121 139 104 091 055 033 136 051 033 062 069 015 049 104 069 122 039 084
094 126 095 151 052 034 037 033 049 148 098 042 121 134 104 091 055 033 136 051 033 062 032 015 049 100 069 122 038 083
093 125 095 149 045 035 030 035 048 152 097 042 112 138 104 094 055 030 124 055 029 063 029 016 048 105 065 117 038 083
093 101 095 149 045 035 030 033 045 146 096 042 112 137 106 094 054 030 124 050 029 063 029 016 048 105 065 124 038 083
092 116 096 146 051 041 039 035 049 149 088 059 120 137 103 092 053 031 137 060 028 063 074 015 052 096 067 118 042 083
088 116 096 146 051 041 033 032 049 149 088 059 120 137 103 092 053 031 137 060 029 058 074 015 052 106 071 118 038 083
094 124 094 148 052 034 040 035 050 150 086 057 110 134 092 094 059 033 133 046 028 062 029 016 049 097 065 121 038 087
094 124 094 148 052 034 040 035 050 150 088 043 110 138 092 095 057 033 133 046 032 065 069 016 049 097 067 121 037 087
097 124 092 148 056 033 033 038 044 150 091 042 112 138 107 093 057 033 135 055 029 063 037 023 065 100 067 116 038 083
097 124 092 148 052 033 033 038 050 147 092 042 112 138 107 093 057 033 135 056 029 063 037 021 048 100 067 116 038 083
093 116 093 146 052 034 038 034 048 150 087 034 118 134 108 092 055 033 137 046 036 063 036 021 061 106 065 113 044 084
093 116 096 144 052 033 038 034 048 146 096 041 118 134 093 092 055 033 137 053 036 063 067 021 061 106 065 121 044 084
100 110 095 144 052 036 031 024 043 147 097 042 118 138 093 093 058 033 123 055 028 058 067 019 049 107 069 114 039 089
092 116 095 147 052 037 031 024 043 147 097 057 118 138 108 095 058 033 136 055 032 058 067 020 049 107 067 114 039 084
093 110 097 148 052 036 036 034 045 150 090 058 120 134 092 094 055 033 124 055 028 062 067 023 052 106 069 134 040 087
102 110 097 148 052 036 036 034 045 150 090 035 118 134 092 094 053 031 124 054 028 062 034 017 049 106 067 134 040 087
093 111 092 142 039 036 040 035 047 146 089 035 120 138 092 085 057 032 136 054 033 060 036 016 052 106 067 112 038 085
093 111 092 142 039 036 040 035 046 146 089 035 120 138 092 085 057 032 136 055 033 060 036 016 063 106 067 112 038 087
102 111 089 148 056 034 032 038 045 147 086 034 118 138 092 091 058 033 135 054 028 060 037 023 053 100 069 115 038 084
102 111 089 148 056 037 032 038 045 151 091 034 113 137 092 091 054 033 135 054 030 058 037 023 053 104 067 124 037 084
093 125 093 140 050 032 033 035 045 146 097 041 120 134 093 091 052 031 135 055 033 058 034 016 048 097 068 113 040 083
093 125 096 143 052 032 033 035 045 146 098 041 120 134 093 092 052 031 135 055 027 058 027 016 065 097 068 121 043 085
092 104 097 148 049 038 039 035 050 148 093 059 108 134 103 091 053 032 137 051 029 058 032 024 053 096 067 124 039 084
093 104 097 148 049 038 039 030 043 145 092 041 108 135 103 093 053 032 134 051 029 058 032 017 053 106 067 124 039 084
102 126 095 148 056 037 040 027 050 148 098 058 107 138 103 091 057 033 132 060 028 060 029 022 052 101 065 118 038 084
102 126 095 148 056 036 039 027 050 148 098 041 122 138 103 091 055 033 132 060 030 060 029 022 052 101 065 114 032 084
093 126 095 146 056 036 031 038 042 146 097 058 121 140 093 091 055 026 133 054 030 063 037 024 060 104 068 117 037 086
093 126 095 148 056 036 031 038 044 145 097 058 121 140 104 091 055 026 133 044 028 058 035 024 060 101 068 118 037 084
092 104 095 148 052 041 039 034 042 152 090 044 114 139 106 097 057 031 124 051 033 062 069 015 052 096 067 116 038 084
102 104 095 148 052 041 039 034 042 146 090 044 114 136 106 091 057 030 136 054 033 060 069 015 065 104 067 117 038 084
102 105 092 148 053 037 033 038 045 152 087 034 114 135 104 088 058 033 134 047 028 062 033 020 048 101 067 111 044 084
102 105 092 148 048 043 033 038 046 147 090 034 118 135 104 088 056 033 134 047 028 062 069 020 048 101 067 118 031 084
103 112 092 148 055 036 031 035 044 152 091 058 119 135 093 094 057 032 135 054 028 060 067 015 064 101 065 114 044 085
103 116 092 147 052 036 031 035 044 152 091 058 114 136 093 094 057 033 135 054 028 058 037 015 064 101 065 116 044 084
092 112 095 139 055 036 039 036 042 148 098 058 114 134 093 091 055 034 124 051 032 058 064 016 053 101 066 134 037 089
094 112 095 139 055 036 036 038 042 148 091 058 114 134 093 091 055 034 135 051 029 058 067 016 053 101 066 134 037 089
088 125 095 142 053 037 033 035 042 147 087 032 120 138 109 088 057 033 136 051 034 058 069 024 047 107 065 127 044 084
088 125 095 146 053 037 033 035 042 147 087 032 107 138 106 088 057 033 136 051 034 058 069 024 047 099 066 127 037 084
099 106 095 148 052 036 039 035 039 149 091 041 107 134 108 091 055 035 128 044 028 063 030 015 063 104 066 124 038 083
099 106 095 148 052 035 036 035 047 149 091 042 107 134 108 091 055 035 128 054 028 063 030 015 063 104 066 116 038 084
093 104 094 147 041 036 031 034 046 145 088 043 114 135 103 091 055 034 133 054 033 062 032 018 061 107 072 115 038 080
093 104 095 147 041 036 031 034 046 152 088 043 114 135 103 091 055 034 134 054 033 062 032 018 061 107 072 115 039 080
094 104 095 144 040 038 040 038 048 145 086 059 119 139 103 091 055 033 136 054 030 058 037 022 047 096 069 113 042 084
094 104 095 149 040 038 040 036 048 145 086 059 119 139 103 091 055 032 134 054 030 058 037 023 047 107 065 113 038 084
094 116 095 149 050 034 038 034 046 152 091 043 120 134 108 091 058 031 133 054 032 060 036 021 064 096 071 115 038 087
097 116 095 149 050 034 038 034 046 152 091 043 120 134 108 091 057 031 133 054 032 060 036 023 064 096 071 115 038 084
093 114 095 148 039 036 039 035 050 146 086 042 114 137 103 090 053 032 136 046 032 058 036 016 064 106 069 121 038 084
093 114 095 148 039 036 039 035 048 146 086 042 114 137 103 092 053 032 135 046 032 058 036 016 064 106 069 113 038 084
090 113 097 157 041 043 039 035 047 146 092 041 117 135 093 091 054 033 136 054 033 060 037 016 049 102 069 127 038 087
090 103 095 157 041 043 040 035 047 146 092 058 114 135 093 091 054 034 136 060 033 060 037 016 049 102 069 115 038 087
092 111 095 149 045 036 040 031 044 150 092 044 114 137 103 093 055 033 136 054 032 058 069 024 049 105 066 117 038 084
094 111 093 149 045 036 040 031 042 147 092 044 114 137 104 093 055 033 136 054 029 061 069 024 049 101 066 117 038 089
102 105 095 144 048 036 040 035 047 146 090 041 120 136 107 091 055 034 124 054 036 058 028 022 062 099 064 118 043 085
102 105 095 144 048 038 040 035 047 146 087 058 120 136 106 091 055 034 124 055 036 058 028 022 062 103 066 134 032 089
102 104 095 148 052 034 039 035 048 148 090 032 119 138 106 096 053 030 134 046 032 063 029 015 049 100 069 114 040 081
102 104 095 148 052 034 039 034 048 146 098 032 119 138 106 096 053 030 134 046 033 063 029 015 049 100 069 121 036 081
102 105 095 147 039 036 030 036 046 150 086 034 120 135 104 085 058 033 135 058 029 063 067 015 052 106 065 111 038 084
102 125 095 144 039 036 040 036 046 150 097 034 120 137 092 085 058 032 128 051 029 063 029 015 051 106 067 111 038 084
098 126 095 142 051 041 036 034 048 152 091 041 108 137 093 091 055 032 134 055 033 061 037 021 047 100 069 125 043 089
098 126 095 157 051 041 039 034 048 147 091 041 120 136 104 091 055 034 134 055 033 061 037 021 047 106 069 125 043 089
102 104 095 148 051 036 033 024 046 147 086 045 107 137 104 091 055 032 134 062 032 063 029 015 064 100 065 116 041 087
093 104 095 148 051 036 039 024 046 147 086 045 119 137 104 091 055 033 134 062 033 063 069 017 052 100 067 111 041 087
088 101 096 139 052 036 031 035 046 146 097 058 114 137 092 097 060 032 124 051 032 062 027 018 061 106 069 117 033 085
088 101 096 149 052 036 031 035 046 146 097 058 114 137 092 094 060 032 124 056 032 062 067 018 061 106 067 117 033 085
099 104 095 147 043 036 036 035 042 150 087 044 119 135 103 091 052 032 136 060 032 060 028 020 052 107 067 113 036 084
102 104 094 147 052 036 036 036 050 150 089 044 119 135 103 091 052 032 136 060 029 060 028 020 052 107 067 113 036 084
102 104 093 148 039 036 036 034 043 150 096 042 108 137 093 085 052 036 134 054 030 058 032 015 060 099 066 124 039 084
102 104 093 148 039 036 036 034 043 147 096 042 108 137 093 085 052 036 134 054 033 058 032 015 051 099 066 113 044 084
102 110 095 140 055 035 038 035 044 146 097 034 121 138 106 096 055 033 135 060 033 062 032 016 066 100 066 134 040 084
102 110 095 140 055 035 039 035 044 146 086 034 121 138 106 096 055 031 124 060 033 058 032 016 066 100 066 134 040 084
099 098 087 142 057 043 036 032 045 149 090 048 122 136 102 091 057 033 127 053 027 064 070 020 048 107 067 136 040 086
099 098 087 142 057 043 036 032 045 149 090 048 122 136 102 091 057 033 127 053 027 064 070 020 048 107 067 136 040 086
093 099 086 142 057 042 036 035 045 149 088 047 117 142 105 090 058 034 136 054 028 065 035 020 048 107 067 135 042 083
093 099 086 142 057 042 036 035 045 149 088 047 117 142 105 090 058 034 136 054 028 065 035 020 048 107 067 135 042 083
099 123 087 143 059 044 036 036 045 149 090 048 122 136 102 091 057 031 125 053 028 064 070 020 052 107 067 135 040 087
099 123 087 143 059 044 036 036 045 149 090 048 122 136 102 091 057 031 125 053 028 064 070 020 052 107 067 135 040 087
099 099 087 142 058 041 036 032 044 147 090 047 115 138 105 091 055 032 125 054 025 064 072 020 047 107 068 135 041 086
099 099 087 142 058 041 036 032 044 147 090 047 115 138 105 091 055 032 125 054 025 064 072 020 047 107 068 135 041 086
095 098 087 142 058 043 036 036 044 149 090 047 116 142 103 091 058 032 123 053 028 065 036 020 051 107 067 135 040 087
095 098 087 142 058 043 036 036 044 149 090 047 116 142 103 091 058 032 123 053 028 065 036 020 051 107 067 135 040 087
095 099 087 142 058 042 036 028 040 149 098 047 115 138 102 091 059 032 123 054 026 067 035 021 061 107 067 136 040 086
095 099 087 142 058 042 036 028 040 149 098 047 115 138 102 091 059 032 123 054 026 067 035 021 061 107 067 136 040 086
099 097 087 142 058 043 039 028 045 149 088 047 115 136 102 090 055 033 123 054 029 064 035 021 048 106 067 135 040 083
099 097 087 142 058 043 039 028 045 149 088 047 115 136 102 090 055 033 123 054 029 064 035 021 048 106 067 135 040 083
093 099 087 142 057 043 036 032 045 149 090 047 115 138 105 090 055 033 125 053 026 064 036 021 047 107 067 136 041 083
093 099 087 142 057 043 036 032 045 149 090 047 115 138 105 090 055 033 125 053 026 064 036 021 053 107 067 136 041 083
099 099 086 142 057 041 033 034 039 149 099 047 119 136 103 091 054 035 136 054 029 065 072 021 048 109 068 135 040 086
099 099 086 142 057 041 033 034 039 149 099 047 119 136 103 091 054 035 136 054 029 065 072 021 048 109 068 135 040 086
095 099 086 142 058 042 040 033 044 149 089 046 115 138 102 092 054 032 127 046 028 065 035 021 048 107 068 135 041 086
095 099 086 142 058 042 040 033 044 149 089 046 115 138 102 092 054 032 127 046 028 065 035 021 048 107 068 135 041 086
095 097 087 143 058 041 036 035 045 149 090 047 122 138 102 091 055 032 134 052 027 064 072 019 048 107 067 137 040 083
095 097 087 143 058 041 036 035 045 149 090 047 122 138 102 091 055 032 134 052 027 064 072 019 048 107 067 137 040 083
097 098 087 142 058 041 035 032 045 146 090 047 116 138 102 091 058 032 123 053 027 064 037 019 051 108 069 135 042 083
097 098 087 142 058 041 035 032 045 146 090 047 116 138 102 091 058 032 123 053 027 064 037 019 051 108 069 135 042 083
093 099 087 142 058 043 036 035 044 149 090 049 120 136 102 090 054 032 125 053 028 064 036 021 052 107 067 135 042 086
093 099 087 142 058 043 036 035 044 149 090 049 120 136 102 090 054 032 125 053 028 064 036 021 052 107 067 135 042 086
093 099 086 142 058 041 036 032 045 150 090 047 119 136 103 091 057 032 125 054 029 064 037 022 048 107 068 135 040 086
093 099 086 142 058 041 036 032 045 150 090 047 119 136 103 091 057 032 125 054 029 064 037 022 048 107 068 135 040 086
093 099 086 145 058 043 033 028 043 149 089 047 117 138 102 089 054 034 127 054 028 065 072 021 048 106 068 136 042 083
093 099 086 145 058 043 033 028 043 149 089 047 117 138 102 089 054 034 127 054 028 065 072 021 048 106 068 136 042 083
099 098 087 143 058 041 036 028 045 146 090 047 116 142 102 091 054 033 125 053 028 064 072 019 051 107 067 134 042 082
099 099 087 143 058 041 036 028 045 146 090 047 115 142 102 091 054 033 125 053 028 064 072 019 051 107 067 134 041 082
099 099 087 142 058 042 036 032 045 148 090 047 116 142 102 091 054 034 127 054 028 065 072 019 051 108 067 134 042 086
095 099 087 142 058 042 036 032 045 148 090 047 116 142 102 091 054 034 127 054 028 065 072 019 051 108 067 134 042 086
095 098 087 142 058 041 039 029 044 149 089 047 112 138 102 090 055 032 136 054 029 063 072 020 048 107 067 135 040 083
095 098 087 142 058 041 039 029 044 149 089 047 112 138 102 090 055 032 136 054 029 063 072 020 048 107 067 135 040 083
099 097 087 143 058 043 037 032 043 146 093 049 115 138 103 091 055 032 125 054 029 064 072 021 053 106 068 134 043 083
099 097 087 143 058 043 037 032 043 146 093 049 115 138 103 091 055 032 125 054 029 064 072 021 053 106 068 134 043 083
099 123 088 142 058 044 036 031 043 150 090 047 114 136 102 090 059 032 136 052 028 065 072 021 048 106 067 135 040 083
099 123 088 142 058 044 036 031 045 150 090 047 114 136 102 090 059 032 136 052 028 065 072 020 048 106 067 135 040 083
100 098 086 148 058 044 040 031 045 149 089 049 121 142 103 091 058 033 125 054 026 067 072 021 053 108 067 135 040 086
100 098 086 148 058 041 040 031 045 149 089 049 121 142 103 091 058 033 125 054 026 067 072 021 053 108 067 135 040 086
100 099 087 143 058 041 036 028 039 148 098 047 117 138 101 091 054 034 128 053 028 064 035 020 051 108 069 135 040 086
100 099 087 143 058 041 036 028 039 148 098 047 117 138 101 091 054 034 128 053 028 064 035 020 051 108 069 135 040 086
097 099 087 142 058 041 036 036 045 146 098 049 112 136 103 091 058 033 127 054 029 067 072 021 052 107 068 134 040 083
097 099 087 142 058 041 036 036 045 146 098 049 112 136 103 091 058 033 124 054 029 067 072 021 052 107 068 134 040 083
100 097 089 142 058 044 036 032 044 149 090 046 115 142 102 091 054 035 123 054 029 064 037 020 048 107 067 135 042 083
100 097 089 142 058 044 036 032 044 149 090 046 115 142 102 091 054 035 123 054 029 064 037 020 048 107 067 135 042 083
097 098 087 142 058 042 036 032 045 149 091 047 122 143 102 092 055 032 136 053 026 064 035 019 047 107 067 125 042 083
097 098 087 142 058 042 036 032 045 149 091 047 122 136 102 092 055 032 136 053 026 064 035 019 047 107 067 125 042 083
099 099 087 142 058 041 036 036 045 148 088 049 119 138 103 091 058 033 123 053 028 064 036 021 051 107 068 134 042 087
099 099 087 142 058 041 036 036 045 148 088 049 119 138 103 091 058 033 123 053 028 064 036 021 051 107 068 134 042 087
100 098 087 142 059 041 036 036 045 149 087 047 119 136 103 091 055 032 125 053 029 067 072 020 064 107 067 134 040 083
100 098 087 142 059 041 036 036 045 149 087 047 116 136 103 091 055 032 125 053 029 067 072 020 064 107 067 134 040 083
097 123 087 142 057 041 039 029 045 149 098 047 123 138 103 091 055 033 124 054 026 067 036 021 052 107 068 134 040 083
097 123 087 142 057 041 039 029 045 149 098 047 123 138 103 091 055 033 124 054 026 067 036 021 052 107 068 134 040 083
095 098 087 142 058 042 036 035 045 149 091 048 119 138 102 090 055 034 128 054 029 064 036 019 051 107 067 135 041 086
095 098 087 142 058 042 036 035 045 149 091 048 119 138 102 090 055 034 128 054 029 064 036 019 051 107 067 135 041 086
097 123 086 142 058 042 036 029 044 146 089 048 117 136 103 090 058 034 123 053 028 064 072 019 051 107 067 135 040 083
097 123 086 142 058 042 036 029 044 146 089 048 117 136 103 090 058 034 123 053 028 064 072 019 051 107 067 135 040 083
099 099 087 142 058 041 036 033 045 149 090 047 122 139 102 091 055 032 136 053 029 067 035 021 053 107 069 137 041 086
099 099 087 142 058 041 036 033 045 149 090 047 122 139 102 091 055 032 136 053 029 067 035 021 053 107 069 137 041 086
095 097 087 149 058 040 039 032 045 149 087 047 120 138 102 090 053 032 123 054 029 063 037 019 047 106 067 136 040 086
095 097 087 149 058 040 039 032 045 149 087 047 120 138 102 090 053 032 123 054 029 063 037 019 047 106 067 136 040 086
097 099 087 142 058 043 036 032 045 147 090 047 119 138 105 091 058 034 123 053 029 064 038 019 051 108 067 135 040 083
097 099 089 142 058 043 036 032 045 147 090 047 119 138 105 091 058 034 123 053 029 064 038 019 051 108 067 135 040 083
095 098 085 142 057 041 036 031 043 149 098 047 115 138 103 091 058 032 124 054 026 067 035 021 051 108 067 134 041 087
095 098 085 142 057 041 036 031 043 149 098 047 115 138 103 091 058 032 124 054 026 067 035 021 051 108 067 134 041 087
099 098 087 142 058 041 036 033 043 149 090 047 119 138 101 090 058 032 127 053 029 064 072 021 051 107 067 137 040 087
099 098 087 142 058 041 036 033 043 149 090 047 119 138 101 090 058 032 127 053 028 064 072 021 051 107 067 137 040 087
095 099 087 145 043 043 036 032 046 148 090 047 115 138 103 091 055 032 125 052 029 064 037 021 048 107 069 136 040 083
095 099 087 145 043 043 036 032 046 148 090 047 115 138 103 091 055 032 123 052 029 064 037 021 048 107 069 136 040 083
098 098 087 142 058 041 036 034 045 146 088 048 116 142 103 091 057 033 125 053 028 067 036 022 047 106 067 134 040 086
098 098 087 142 058 041 036 034 045 146 090 048 116 142 103 091 057 033 125 053 028 067 036 022 047 106 067 135 040 086
095 098 087 142 058 041 036 028 045 149 098 048 116 136 104 091 058 033 123 054 027 064 072 020 047 107 067 135 040 086
095 098 087 142 058 041 036 032 045 149 098 048 116 136 104 091 058 033 123 054 027 064 072 020 047 107 067 135 040 086
100 098 087 142 058 041 039 036 045 148 090 048 117 142 103 091 055 032 136 054 029 064 035 019 047 107 067 136 039 087
100 098 087 142 058 041 039 036 045 148 090 048 117 142 103 091 055 032 136 054 029 064 035 019 047 107 067 136 039 087
097 099 085 141 057 041 036 031 045 151 090 049 115 139 103 091 058 032 136 054 029 067 072 020 047 108 067 135 040 083
097 099 085 141 057 041 036 031 045 151 090 049 115 139 103 091 058 032 136 054 029 067 072 020 047 108 067 135 040 083
